xof 0302txt 0064
template Header {
 <3D82AB43-62DA-11cf-AB39-0020AF71E433>
 WORD major;
 WORD minor;
 DWORD flags;
}

template Vector {
 <3D82AB5E-62DA-11cf-AB39-0020AF71E433>
 FLOAT x;
 FLOAT y;
 FLOAT z;
}

template Coords2d {
 <F6F23F44-7686-11cf-8F52-0040333594A3>
 FLOAT u;
 FLOAT v;
}

template Matrix4x4 {
 <F6F23F45-7686-11cf-8F52-0040333594A3>
 array FLOAT matrix[16];
}

template ColorRGBA {
 <35FF44E0-6C7C-11cf-8F52-0040333594A3>
 FLOAT red;
 FLOAT green;
 FLOAT blue;
 FLOAT alpha;
}

template ColorRGB {
 <D3E16E81-7835-11cf-8F52-0040333594A3>
 FLOAT red;
 FLOAT green;
 FLOAT blue;
}

template IndexedColor {
 <1630B820-7842-11cf-8F52-0040333594A3>
 DWORD index;
 ColorRGBA indexColor;
}

template Boolean {
 <4885AE61-78E8-11cf-8F52-0040333594A3>
 WORD truefalse;
}

template Boolean2d {
 <4885AE63-78E8-11cf-8F52-0040333594A3>
 Boolean u;
 Boolean v;
}

template MaterialWrap {
 <4885AE60-78E8-11cf-8F52-0040333594A3>
 Boolean u;
 Boolean v;
}

template TextureFilename {
 <A42790E1-7810-11cf-8F52-0040333594A3>
 STRING filename;
}

template Material {
 <3D82AB4D-62DA-11cf-AB39-0020AF71E433>
 ColorRGBA faceColor;
 FLOAT power;
 ColorRGB specularColor;
 ColorRGB emissiveColor;
 [...]
}

template MeshFace {
 <3D82AB5F-62DA-11cf-AB39-0020AF71E433>
 DWORD nFaceVertexIndices;
 array DWORD faceVertexIndices[nFaceVertexIndices];
}

template MeshFaceWraps {
 <4885AE62-78E8-11cf-8F52-0040333594A3>
 DWORD nFaceWrapValues;
 Boolean2d faceWrapValues;
}

template MeshTextureCoords {
 <F6F23F40-7686-11cf-8F52-0040333594A3>
 DWORD nTextureCoords;
 array Coords2d textureCoords[nTextureCoords];
}

template MeshMaterialList {
 <F6F23F42-7686-11cf-8F52-0040333594A3>
 DWORD nMaterials;
 DWORD nFaceIndexes;
 array DWORD faceIndexes[nFaceIndexes];
 [Material]
}

template MeshNormals {
 <F6F23F43-7686-11cf-8F52-0040333594A3>
 DWORD nNormals;
 array Vector normals[nNormals];
 DWORD nFaceNormals;
 array MeshFace faceNormals[nFaceNormals];
}

template MeshVertexColors {
 <1630B821-7842-11cf-8F52-0040333594A3>
 DWORD nVertexColors;
 array IndexedColor vertexColors[nVertexColors];
}

template Mesh {
 <3D82AB44-62DA-11cf-AB39-0020AF71E433>
 DWORD nVertices;
 array Vector vertices[nVertices];
 DWORD nFaces;
 array MeshFace faces[nFaces];
 [...]
}

Header{
1;
0;
1;
}

Mesh {
 342;
 4.23650;11.41345;-10.64015;,
 4.64964;15.43453;-9.13468;,
 5.04112;18.48657;-6.77287;,
 3.82314;8.86678;-5.63820;,
 5.36482;15.97285;-4.24428;,
 5.83388;12.33926;-3.30742;,
 2.07319;11.02528;-11.23851;,
 1.06876;13.01010;-6.19090;,
 3.63476;20.72452;-6.52744;,
 2.08357;15.87561;-10.29843;,
 3.40070;11.13057;-1.19394;,
 3.08240;16.06969;-2.84529;,
 4.16754;19.95034;-6.49256;,
 5.04112;18.48657;-6.77287;,
 4.64964;15.43453;-9.13468;,
 2.08357;15.87561;-10.29843;,
 3.63476;20.72452;-6.52744;,
 3.08240;16.06969;-2.84529;,
 4.12658;16.34609;-3.23996;,
 5.36482;15.97285;-4.24428;,
 2.08357;15.87561;-10.29843;,
 4.64964;15.43453;-9.13468;,
 4.23650;11.41345;-10.64015;,
 3.57737;11.16489;-11.87126;,
 4.12658;16.34609;-3.23996;,
 3.40070;11.13057;-1.19394;,
 4.80022;10.28377;-1.79119;,
 5.83388;12.33926;-3.30742;,
 5.36482;15.97285;-4.24428;,
 4.06321;1.47448;-11.24854;,
 4.89375;5.93155;-10.51036;,
 6.31830;6.20840;-7.21938;,
 6.82791;4.20529;-6.94807;,
 6.00406;3.93343;-2.83912;,
 4.51005;3.42214;-2.16065;,
 1.67073;3.09137;-6.96279;,
 6.56776;6.82774;-3.54284;,
 2.51811;8.44928;-11.29583;,
 4.06321;1.47448;-11.24854;,
 1.67073;3.09137;-6.96279;,
 0.64898;6.22452;-6.44297;,
 2.51811;8.44928;-11.29583;,
 2.07319;11.02528;-11.23851;,
 3.88462;8.78483;-11.71539;,
 4.51005;3.42214;-2.16065;,
 3.31964;8.60503;-1.32097;,
 4.71988;7.54530;-10.59904;,
 4.89375;5.93155;-10.51036;,
 4.06321;1.47448;-11.24854;,
 3.31964;8.60503;-1.32097;,
 6.00406;3.93343;-2.83912;,
 4.80022;10.28377;-1.79119;,
 4.71988;7.54530;-10.59904;,
 4.38391;6.64258;-6.14680;,
 6.31830;6.20840;-7.21938;,
 4.89375;5.93155;-10.51036;,
 6.56776;6.82774;-3.54284;,
 6.39889;8.01744;-3.38198;,
 6.39889;8.01744;-3.38198;,
 6.56776;6.82774;-3.54284;,
 4.16754;19.95034;-6.49256;,
 2.08357;15.87561;-10.29843;,
 2.08357;15.87561;-10.29843;,
 3.57737;11.16489;-11.87126;,
 4.06321;1.47448;-11.24854;,
 6.82791;4.20529;-6.94807;,
 2.51811;8.44928;-11.29583;,
 3.88462;8.78483;-11.71539;,
 3.31964;8.60503;-1.32097;,
 4.80022;10.28377;-1.79119;,
 6.39889;8.01744;-3.38198;,
 4.23650;11.41345;9.77600;,
 3.82315;8.86678;4.77407;,
 5.04112;18.48657;5.90871;,
 4.64964;15.43453;8.27051;,
 5.83387;12.33926;2.44327;,
 5.36482;15.97285;3.38012;,
 2.07320;11.02528;10.37438;,
 2.08357;15.87561;9.43430;,
 3.63476;20.72452;5.66328;,
 1.06877;13.01010;5.32675;,
 3.08241;16.06969;1.98114;,
 3.40070;11.13057;0.32978;,
 4.16754;19.95034;5.62840;,
 2.08357;15.87561;9.43430;,
 4.64964;15.43453;8.27051;,
 5.04112;18.48657;5.90871;,
 4.12658;16.34609;2.37582;,
 3.08241;16.06969;1.98114;,
 3.63476;20.72452;5.66328;,
 5.36482;15.97285;3.38012;,
 2.08357;15.87561;9.43430;,
 3.57738;11.16489;11.00711;,
 4.23650;11.41345;9.77600;,
 4.64964;15.43453;8.27051;,
 4.12658;16.34609;2.37582;,
 4.80022;10.28377;0.92704;,
 3.40070;11.13057;0.32978;,
 5.36482;15.97285;3.38012;,
 5.83387;12.33926;2.44327;,
 4.06321;1.47448;10.38440;,
 6.82791;4.20529;6.08392;,
 6.31829;6.20840;6.35522;,
 4.89375;5.93155;9.64622;,
 6.00405;3.93343;1.97496;,
 1.67073;3.09137;6.09862;,
 4.51006;3.42214;1.29650;,
 6.56776;6.82774;2.67869;,
 2.51811;8.44928;10.43170;,
 0.64898;6.22452;5.57882;,
 1.67073;3.09137;6.09862;,
 4.06321;1.47448;10.38440;,
 2.51811;8.44928;10.43170;,
 3.88461;8.78483;10.85122;,
 2.07320;11.02528;10.37438;,
 3.31964;8.60503;0.45682;,
 4.51006;3.42214;1.29650;,
 4.71988;7.54530;9.73490;,
 4.06321;1.47448;10.38440;,
 4.89375;5.93155;9.64622;,
 3.31964;8.60503;0.45682;,
 4.80022;10.28377;0.92704;,
 6.00405;3.93343;1.97496;,
 4.71988;7.54530;9.73490;,
 4.38391;6.64258;5.28264;,
 4.89375;5.93155;9.64622;,
 6.31829;6.20840;6.35522;,
 6.39888;8.01744;2.51783;,
 6.56776;6.82774;2.67869;,
 6.39888;8.01744;2.51783;,
 6.56776;6.82774;2.67869;,
 4.16754;19.95034;5.62840;,
 2.08357;15.87561;9.43430;,
 2.08357;15.87561;9.43430;,
 3.57738;11.16489;11.00711;,
 4.06321;1.47448;10.38440;,
 6.82791;4.20529;6.08392;,
 2.51811;8.44928;10.43170;,
 3.88461;8.78483;10.85122;,
 3.31964;8.60503;0.45682;,
 4.80022;10.28377;0.92704;,
 6.39888;8.01744;2.51783;,
 3.51383;5.64401;-8.74458;,
 5.02500;7.02511;-10.25546;,
 5.77307;6.18245;-8.85666;,
 6.06436;5.64401;-6.58576;,
 6.39370;5.64401;-4.54532;,
 3.51382;5.64401;-4.54532;,
 4.37779;9.26453;-7.60090;,
 3.51515;6.88215;-6.62982;,
 4.73955;9.48228;-6.21220;,
 4.70808;11.69906;-7.12654;,
 6.16749;8.43985;-7.81444;,
 4.70808;11.69906;-7.12654;,
 6.50550;10.47702;-6.18279;,
 5.78957;8.28451;-6.54378;,
 3.69941;7.62277;-4.54532;,
 5.16937;13.54246;-4.54532;,
 5.16937;13.54246;-4.54532;,
 5.59006;7.62277;-4.54532;,
 7.50603;7.58129;-6.57759;,
 5.59006;7.62277;-4.54532;,
 6.39370;5.64401;-4.54532;,
 6.06436;5.64401;-6.58576;,
 5.77307;6.18245;-8.85666;,
 5.69826;8.78477;-8.71638;,
 5.59006;7.62277;-4.54532;,
 3.69941;7.62277;-4.54532;,
 6.39370;5.64401;-4.54532;,
 5.69826;8.78477;-8.71638;,
 5.77307;6.18245;-8.85666;,
 5.31506;12.29025;-9.47702;,
 4.37779;9.26453;-7.60090;,
 6.16749;8.43985;-7.81444;,
 3.69941;7.62277;-4.54532;,
 3.51515;6.88215;-6.62982;,
 3.51383;5.64401;-8.74458;,
 3.51382;5.64401;-4.54532;,
 5.31506;12.29025;-9.47702;,
 5.02500;7.02511;-10.25546;,
 4.73955;9.48228;-6.21220;,
 5.16937;13.54246;-4.54532;,
 6.50550;10.47702;-6.18279;,
 4.73955;9.48228;-6.21220;,
 6.50550;10.47702;-6.18279;,
 4.70808;11.69906;-7.12654;,
 4.37779;9.26453;-7.60090;,
 4.70808;11.69906;-7.12654;,
 3.69941;7.62277;-4.54532;,
 5.59006;7.62277;-4.54532;,
 7.50603;7.58129;-6.57759;,
 5.78957;8.28451;-6.54378;,
 5.31506;12.29025;-9.47702;,
 3.51515;6.88215;-6.62982;,
 3.51382;5.64401;7.88043;,
 6.06436;5.64401;5.72161;,
 5.77307;6.18245;7.99250;,
 5.02499;7.02511;9.39134;,
 3.51382;5.64401;3.68117;,
 6.39371;5.64401;3.68118;,
 4.37779;9.26453;6.73674;,
 5.74823;13.21304;6.26239;,
 4.73955;9.48228;5.34804;,
 3.51515;6.88215;5.76566;,
 5.57482;8.98599;6.95028;,
 5.78956;8.28451;5.67963;,
 5.51939;10.47702;5.31866;,
 5.74823;13.21304;6.26239;,
 5.16937;13.54246;3.68117;,
 3.69941;7.62277;3.68117;,
 5.59008;7.62277;3.68118;,
 5.16937;13.54246;3.68117;,
 7.50603;9.40421;5.71343;,
 5.69826;7.93619;6.68198;,
 5.69826;7.93619;6.68198;,
 5.57482;8.98599;6.95028;,
 4.37779;9.26453;6.73674;,
 5.05946;12.87147;8.61286;,
 4.73955;9.48228;5.34804;,
 5.51939;10.47702;5.31866;,
 5.16937;13.54246;3.68117;,
 4.73955;9.48228;5.34804;,
 5.74823;13.21304;6.26239;,
 5.51939;10.47702;5.31866;,
 4.37779;9.26453;6.73674;,
 5.74823;13.21304;6.26239;,
 3.69941;7.62277;3.68117;,
 5.59008;7.62277;3.68118;,
 7.50603;9.40421;5.71343;,
 5.78956;8.28451;5.67963;,
 5.05946;12.87147;8.61286;,
 3.51515;6.88215;5.76566;,
 7.06219;6.98484;5.71595;,
 7.00009;7.34290;7.89543;,
 5.77307;6.18245;7.99250;,
 6.06436;5.64401;5.72161;,
 6.39371;5.64401;3.68118;,
 5.83749;7.01356;3.68118;,
 5.59008;7.62277;3.68118;,
 7.00009;7.34290;7.89543;,
 5.22577;10.66926;8.85253;,
 5.77307;6.18245;7.99250;,
 5.83749;7.01356;3.68118;,
 6.39371;5.64401;3.68118;,
 3.64227;7.01356;3.68117;,
 3.69941;7.62277;3.68117;,
 5.59008;7.62277;3.68118;,
 5.22577;10.66926;8.85253;,
 5.05946;12.87147;8.61286;,
 3.51515;6.88215;5.76566;,
 3.51475;6.50096;6.41674;,
 3.51382;5.64401;7.88043;,
 5.02499;7.02511;9.39134;,
 3.64227;7.01356;3.68117;,
 3.51382;5.64401;3.68117;,
 3.69941;7.62277;3.68117;,
 -10.40706;4.01972;-12.08677;,
 10.40706;4.01972;-12.08677;,
 10.40706;0.59800;-12.08677;,
 -10.40706;0.59800;-12.08677;,
 10.40706;4.01972;-12.08677;,
 10.40706;4.01972;12.08677;,
 10.40706;0.59800;12.08677;,
 10.40706;0.59800;-12.08677;,
 10.40706;4.01972;12.08677;,
 -10.40706;4.01972;12.08677;,
 -10.40706;0.59800;12.08677;,
 10.40706;0.59800;12.08677;,
 -10.40706;4.01972;12.08677;,
 -10.40706;4.01972;-12.08677;,
 -10.40706;0.59800;-12.08677;,
 -10.40706;0.59800;12.08677;,
 10.40706;4.01972;-12.08677;,
 -10.40706;4.01972;-12.08677;,
 -10.40706;0.59800;-12.08677;,
 10.40706;0.59800;-12.08677;,
 0.00000;2.53982;-12.08677;,
 -4.93822;26.71336;0.00000;,
 7.35891;2.53982;-8.54664;,
 -4.93822;26.71336;0.00000;,
 10.40706;2.53982;0.00000;,
 -4.93822;26.71336;0.00000;,
 7.35891;2.53982;8.54664;,
 -4.93822;26.71336;0.00000;,
 0.00000;2.53982;12.08677;,
 -4.93822;26.71336;0.00000;,
 -7.35891;2.53982;8.54664;,
 -4.93822;26.71336;0.00000;,
 -10.40706;2.53982;0.00000;,
 -4.93822;26.71336;0.00000;,
 -7.35891;2.53982;-8.54664;,
 -4.93822;26.71336;0.00000;,
 0.00000;2.53982;-12.08677;,
 0.00000;2.53982;0.00000;,
 0.00000;2.53982;-12.08677;,
 7.35891;2.53982;-8.54664;,
 10.40706;2.53982;0.00000;,
 7.35891;2.53982;8.54664;,
 0.00000;2.53982;12.08677;,
 -7.35891;2.53982;8.54664;,
 -10.40706;2.53982;0.00000;,
 -7.35891;2.53982;-8.54664;,
 -5.75719;27.13410;-1.01846;,
 -4.00335;27.13410;-1.01846;,
 -4.00335;25.09721;-1.01846;,
 -5.75719;25.09721;-1.01846;,
 -4.00335;27.13410;-1.01846;,
 -4.00335;27.13410;1.01846;,
 -4.00335;25.09721;1.01846;,
 -4.00335;25.09721;-1.01846;,
 -4.00335;27.13410;1.01846;,
 -5.75719;27.13410;1.01846;,
 -5.75719;25.09721;1.01846;,
 -4.00335;25.09721;1.01846;,
 -5.75719;27.13410;1.01846;,
 -5.75719;27.13410;-1.01846;,
 -5.75719;25.09721;-1.01846;,
 -5.75719;25.09721;1.01846;,
 -4.00335;27.13410;-1.01846;,
 -5.75719;27.13410;-1.01846;,
 -5.75719;25.09721;-1.01846;,
 -4.00335;25.09721;-1.01846;,
 -10.88484;2.97203;-12.64166;,
 10.88484;2.97203;-12.64166;,
 10.88484;1.93317;-12.64166;,
 -10.88484;1.93317;-12.64166;,
 10.88484;2.97203;-12.64166;,
 10.88484;2.97203;12.64166;,
 10.88484;1.93317;12.64166;,
 10.88484;1.93317;-12.64166;,
 10.88484;2.97203;12.64166;,
 -10.88484;2.97203;12.64166;,
 -10.88484;1.93317;12.64166;,
 10.88484;1.93317;12.64166;,
 -10.88484;2.97203;12.64166;,
 -10.88484;2.97203;-12.64166;,
 -10.88484;1.93317;-12.64166;,
 -10.88484;1.93317;12.64166;,
 10.88484;2.97203;-12.64166;,
 -10.88484;2.97203;-12.64166;,
 -10.88484;1.93317;-12.64166;,
 10.88484;1.93317;-12.64166;;
 
 144;
 4;0,1,2,3;,
 4;3,2,4,5;,
 4;6,7,8,9;,
 4;7,10,11,8;,
 4;12,13,14,15;,
 4;12,16,17,18;,
 4;12,18,19,13;,
 4;20,21,22,23;,
 4;24,17,25,26;,
 4;24,26,27,28;,
 4;29,30,31,32;,
 4;33,34,35,32;,
 4;33,32,31,36;,
 4;37,38,39,40;,
 4;37,40,7,6;,
 4;41,42,23,43;,
 4;40,39,44,45;,
 4;40,45,10,7;,
 4;43,23,22,46;,
 4;43,46,47,48;,
 4;49,34,50,51;,
 4;52,0,3,53;,
 4;52,53,54,55;,
 4;51,50,56,57;,
 4;53,3,5,58;,
 4;53,58,59,54;,
 3;60,61,16;,
 3;62,63,42;,
 3;64,65,35;,
 3;66,67,48;,
 3;68,69,25;,
 3;69,70,27;,
 4;71,72,73,74;,
 4;72,75,76,73;,
 4;77,78,79,80;,
 4;80,79,81,82;,
 4;83,84,85,86;,
 4;83,87,88,89;,
 4;83,86,90,87;,
 4;91,92,93,94;,
 4;95,96,97,88;,
 4;95,98,99,96;,
 4;100,101,102,103;,
 4;104,101,105,106;,
 4;104,107,102,101;,
 4;108,109,110,111;,
 4;108,77,80,109;,
 4;112,113,92,114;,
 4;109,115,116,110;,
 4;109,80,82,115;,
 4;113,117,93,92;,
 4;113,118,119,117;,
 4;120,121,122,106;,
 4;123,124,72,71;,
 4;123,125,126,124;,
 4;121,127,128,122;,
 4;124,129,75,72;,
 4;124,126,130,129;,
 3;131,89,132;,
 3;133,114,134;,
 3;135,105,136;,
 3;137,118,138;,
 3;139,97,140;,
 3;140,99,141;,
 4;142,143,144,145;,
 4;142,145,146,147;,
 4;148,149,150,151;,
 4;152,153,154,155;,
 4;149,156,157,150;,
 4;155,154,158,159;,
 4;160,161,162,163;,
 4;160,163,164,165;,
 4;160,165,152,155;,
 4;166,167,147,168;,
 4;169,170,143,171;,
 4;169,171,172,173;,
 4;174,175,176,177;,
 4;178,179,176,175;,
 3;180,181,182;,
 3;183,184,185;,
 3;186,187,173;,
 3;188,189,157;,
 3;190,191,159;,
 3;192,193,148;,
 4;194,195,196,197;,
 4;194,198,199,195;,
 4;200,201,202,203;,
 4;204,205,206,207;,
 4;203,202,208,209;,
 4;205,210,211,206;,
 4;212,205,204,213;,
 4;214,215,216,217;,
 3;218,219,220;,
 3;221,222,223;,
 3;224,215,225;,
 3;226,208,227;,
 3;228,210,229;,
 3;230,200,231;,
 4;232,212,213,233;,
 4;232,233,234,235;,
 4;232,235,236,237;,
 4;232,237,238,212;,
 4;239,214,217,240;,
 4;239,240,197,241;,
 4;242,243,198,244;,
 4;242,244,245,246;,
 4;247,248,249,250;,
 4;247,250,251,252;,
 4;253,254,251,250;,
 4;253,250,249,255;,
 4;256,257,258,259;,
 4;260,261,262,263;,
 4;264,265,266,267;,
 4;268,269,270,271;,
 4;268,261,272,273;,
 4;274,275,262,271;,
 3;276,277,278;,
 3;278,279,280;,
 3;280,281,282;,
 3;282,283,284;,
 3;284,285,286;,
 3;286,287,288;,
 3;288,289,290;,
 3;290,291,292;,
 3;293,294,295;,
 3;293,295,296;,
 3;293,296,297;,
 3;293,297,298;,
 3;293,298,299;,
 3;293,299,300;,
 3;293,300,301;,
 3;293,301,294;,
 4;302,303,304,305;,
 4;306,307,308,309;,
 4;310,311,312,313;,
 4;314,315,316,317;,
 4;314,307,318,319;,
 4;320,321,308,317;,
 4;322,323,324,325;,
 4;326,327,328,329;,
 4;330,331,332,333;,
 4;334,335,336,337;,
 4;334,327,338,339;,
 4;340,341,328,337;;
 
 MeshMaterialList {
  7;
  144;
  3,
  3,
  1,
  1,
  1,
  1,
  1,
  1,
  1,
  1,
  1,
  0,
  1,
  1,
  1,
  1,
  1,
  1,
  1,
  1,
  1,
  3,
  3,
  1,
  3,
  3,
  1,
  1,
  0,
  1,
  1,
  1,
  3,
  3,
  1,
  1,
  1,
  1,
  1,
  1,
  1,
  1,
  1,
  0,
  1,
  1,
  1,
  1,
  1,
  1,
  1,
  1,
  1,
  3,
  3,
  1,
  3,
  3,
  1,
  1,
  0,
  1,
  1,
  1,
  2,
  2,
  2,
  2,
  2,
  2,
  2,
  2,
  2,
  2,
  2,
  2,
  2,
  2,
  2,
  2,
  2,
  2,
  2,
  2,
  2,
  2,
  2,
  2,
  2,
  2,
  2,
  2,
  2,
  2,
  2,
  2,
  2,
  2,
  2,
  2,
  2,
  2,
  2,
  2,
  2,
  2,
  2,
  2,
  2,
  2,
  6,
  6,
  6,
  6,
  6,
  6,
  6,
  6,
  6,
  6,
  6,
  6,
  6,
  6,
  6,
  6,
  6,
  6,
  6,
  6,
  6,
  6,
  5,
  5,
  5,
  5,
  5,
  5,
  5,
  5,
  5,
  5,
  5,
  5;;
  Material {
   0.702400;0.380000;0.181600;1.000000;;
   5.000000;
   0.000000;0.000000;0.000000;;
   0.000000;0.000000;0.000000;;
  }
  Material {
   0.367200;0.160000;0.000000;1.000000;;
   5.000000;
   0.000000;0.000000;0.000000;;
   0.000000;0.000000;0.000000;;
  }
  Material {
   0.800000;0.800000;0.800000;1.000000;;
   5.000000;
   0.000000;0.000000;0.000000;;
   0.000000;0.000000;0.000000;;
  }
  Material {
   0.800000;0.680800;0.796800;1.000000;;
   5.000000;
   0.000000;0.000000;0.000000;;
   0.000000;0.000000;0.000000;;
  }
  Material {
   0.179200;0.106400;0.106400;1.000000;;
   5.000000;
   0.000000;0.000000;0.000000;;
   0.000000;0.000000;0.000000;;
  }
  Material {
   0.800000;0.649412;0.163137;1.000000;;
   5.000000;
   0.000000;0.000000;0.000000;;
   0.000000;0.000000;0.000000;;
  }
  Material {
   0.138039;0.138039;0.138039;1.000000;;
   5.000000;
   0.000000;0.000000;0.000000;;
   0.000000;0.000000;0.000000;;
  }
 }
 MeshNormals {
  200;
  0.912206;0.132761;-0.387627;,
  0.871003;0.245538;-0.425516;,
  0.888159;-0.104927;-0.447397;,
  0.918456;0.032207;0.394209;,
  -0.910179;0.206194;0.359248;,
  0.246436;-0.967208;-0.061459;,
  -0.786622;0.204761;-0.582494;,
  0.840605;0.033111;-0.540635;,
  -0.971719;0.199718;0.125993;,
  0.888930;0.097491;-0.447548;,
  0.224990;-0.954805;0.194233;,
  0.876192;0.391078;-0.281684;,
  0.947140;0.136323;-0.290418;,
  0.961158;0.043527;-0.272544;,
  -0.756690;0.071123;-0.649893;,
  0.806477;0.055428;-0.588661;,
  -0.990506;0.098629;0.095759;,
  -0.909277;0.115243;0.399917;,
  0.526941;0.427641;-0.734477;,
  0.541682;0.420512;0.727840;,
  0.756669;0.226893;-0.613165;,
  0.561540;0.090898;0.822442;,
  0.975294;0.048679;-0.215480;,
  -0.673624;-0.105622;-0.731488;,
  -0.987240;-0.148211;0.058227;,
  -0.305198;-0.068377;-0.949831;,
  -0.862351;-0.144117;0.485367;,
  0.921624;0.244944;-0.301019;,
  0.818426;0.473658;-0.325309;,
  0.741717;0.051966;0.668697;,
  0.463177;0.480719;-0.744565;,
  0.559843;0.403680;-0.723615;,
  0.553259;0.554081;0.622011;,
  0.369655;0.579368;0.726421;,
  0.382845;0.440533;0.812010;,
  0.683113;0.386636;0.619572;,
  0.711828;0.503722;0.489454;,
  0.379733;0.117596;0.917591;,
  0.702629;0.174208;0.689901;,
  -0.634047;-0.150101;-0.758587;,
  -0.955033;-0.291878;0.052147;,
  -0.367069;0.053870;-0.928633;,
  -0.797996;-0.306809;0.518720;,
  0.825248;0.053922;-0.562190;,
  0.383326;-0.061169;0.921586;,
  0.404705;-0.063893;0.912212;,
  0.626492;0.475860;-0.617305;,
  0.520908;0.701247;-0.486731;,
  0.587024;0.371576;-0.719260;,
  0.188696;-0.879392;0.437108;,
  0.912208;0.132761;0.387622;,
  0.871002;0.245540;0.425517;,
  0.888160;-0.104926;0.447396;,
  0.918458;0.032211;-0.394204;,
  -0.910178;0.206195;-0.359248;,
  0.246437;-0.967208;0.061460;,
  -0.786619;0.204760;0.582498;,
  0.840604;0.033114;0.540637;,
  -0.971719;0.199718;-0.125994;,
  0.888931;0.097491;0.447546;,
  0.224991;-0.954805;-0.194232;,
  0.876191;0.391080;0.281683;,
  0.947141;0.136322;0.290415;,
  0.961159;0.043526;0.272542;,
  -0.756686;0.071122;0.649898;,
  0.806480;0.055426;0.588658;,
  -0.990506;0.098630;-0.095759;,
  -0.909277;0.115244;-0.399917;,
  0.526947;0.427639;0.734474;,
  0.541683;0.420511;-0.727839;,
  0.756673;0.226890;0.613161;,
  0.561542;0.090899;-0.822440;,
  0.975294;0.048681;0.215478;,
  -0.673618;-0.105621;0.731493;,
  -0.987240;-0.148210;-0.058228;,
  -0.305181;-0.068375;0.949837;,
  -0.862351;-0.144115;-0.485367;,
  0.921623;0.244943;0.301021;,
  0.818427;0.473658;0.325308;,
  0.741722;0.051968;-0.668691;,
  0.559850;0.403679;0.723610;,
  0.463185;0.480716;0.744561;,
  0.553261;0.554080;-0.622011;,
  0.382852;0.440531;-0.812008;,
  0.369663;0.579365;-0.726420;,
  0.711825;0.503724;-0.489457;,
  0.683109;0.386637;-0.619576;,
  0.379739;0.117595;-0.917589;,
  0.702629;0.174207;-0.689902;,
  -0.955033;-0.291877;-0.052149;,
  -0.634040;-0.150099;0.758593;,
  -0.367056;0.053869;0.928638;,
  -0.797996;-0.306808;-0.518722;,
  0.825246;0.053920;0.562194;,
  0.383325;-0.061171;-0.921586;,
  0.404702;-0.063892;-0.912214;,
  0.626494;0.475859;0.617304;,
  0.520905;0.701249;0.486731;,
  0.587028;0.371575;0.719256;,
  0.188698;-0.879393;-0.437105;,
  -0.947099;0.244024;0.208461;,
  0.743517;-0.438491;-0.504884;,
  -0.920493;0.335870;-0.199708;,
  0.000000;-1.000000;-0.000000;,
  0.190938;-0.888152;-0.418006;,
  -0.955012;0.296535;0.004476;,
  0.998959;-0.042573;0.016374;,
  0.098256;-0.971636;-0.215104;,
  -0.920040;0.328126;0.214151;,
  0.911958;0.394023;0.114362;,
  -0.959124;0.282253;-0.020346;,
  -0.976871;0.195014;-0.087706;,
  0.951865;-0.098657;0.290205;,
  0.977217;-0.188000;-0.098499;,
  0.882310;-0.127498;-0.453070;,
  0.902639;0.030166;-0.429339;,
  -0.745135;0.368044;-0.556163;,
  0.566044;-0.654773;0.500866;,
  -0.743783;0.387137;0.544896;,
  0.441629;-0.622263;0.646337;,
  -0.862591;0.400395;0.309226;,
  0.996674;0.063484;-0.051094;,
  0.098256;-0.971636;0.215102;,
  0.334904;-0.916487;0.218840;,
  -0.749104;0.441168;-0.494180;,
  0.945035;0.191688;-0.264885;,
  -0.952023;0.289407;-0.099478;,
  -0.983463;0.166688;0.070827;,
  0.933871;0.093360;-0.345208;,
  0.580850;0.696856;0.420719;,
  0.753351;0.618751;0.222731;,
  0.870653;0.329845;-0.364919;,
  0.975054;0.199307;-0.097703;,
  0.882235;0.237680;0.406411;,
  0.925105;-0.001576;-0.379708;,
  0.920417;0.328026;-0.212679;,
  0.000005;-0.000003;-1.000000;,
  -0.977327;0.130886;0.166434;,
  0.962925;0.052214;-0.264668;,
  0.945818;-0.133560;0.295954;,
  0.956687;-0.063628;0.284081;,
  0.398816;0.885134;0.239758;,
  0.539260;0.780731;0.315686;,
  0.430198;0.889827;0.152109;,
  -0.000003;0.000001;1.000000;,
  -0.000001;0.000001;1.000000;,
  0.621060;0.632166;0.463304;,
  -0.966953;0.192139;-0.167587;,
  -0.998508;0.047223;0.027415;,
  -0.920701;0.383908;-0.070167;,
  -0.877358;0.325522;-0.352530;,
  -0.204856;0.390209;-0.897647;,
  -0.222884;0.369005;0.902307;,
  -0.027255;0.194738;-0.980477;,
  -0.000004;0.000000;1.000000;,
  0.363969;0.872749;0.325323;,
  0.999133;0.041435;0.003922;,
  0.990707;0.085309;-0.105931;,
  0.426183;0.841771;0.331344;,
  0.798551;0.323202;-0.507796;,
  -0.453267;0.379170;0.806709;,
  -0.445942;0.324966;-0.833986;,
  -0.135990;0.164562;0.976947;,
  0.000006;-0.000004;-1.000000;,
  0.000007;-0.000001;-1.000000;,
  -0.530152;0.819300;-0.218373;,
  -0.479776;0.474533;-0.737993;,
  0.736485;-0.649801;0.188013;,
  0.979553;-0.098825;-0.175242;,
  0.820491;0.095758;-0.563582;,
  0.610318;-0.240832;0.754660;,
  0.000004;0.000001;-1.000000;,
  -0.901378;0.236730;0.362598;,
  -0.929372;0.142084;0.340705;,
  -0.962496;0.194377;0.189258;,
  -0.864170;0.328956;0.380785;,
  -0.999109;0.018299;-0.038030;,
  -0.998778;0.047267;-0.014469;,
  0.000000;0.000000;-1.000000;,
  1.000000;0.000000;0.000000;,
  0.000000;0.000000;1.000000;,
  -0.014212;0.444844;-0.895495;,
  0.630572;0.523393;-0.573096;,
  0.844260;0.535934;0.000000;,
  0.630572;0.523393;0.573096;,
  -0.014212;0.444844;0.895495;,
  -0.715452;0.295480;0.633103;,
  -0.975352;0.220657;0.000000;,
  -0.715452;0.295480;-0.633103;,
  0.762132;0.572402;-0.302508;,
  0.000000;-1.000000;-0.000000;,
  -1.000000;0.000000;0.000000;,
  0.000000;1.000000;0.000000;,
  -0.407624;0.340396;-0.847333;,
  0.000000;0.000000;-1.000000;,
  1.000000;0.000000;0.000000;,
  0.000000;0.000000;1.000000;,
  -1.000000;0.000000;0.000000;,
  0.000000;1.000000;0.000000;,
  0.000000;-1.000000;-0.000000;;
  144;
  4;12,0,9,13;,
  4;13,9,2,15;,
  4;14,16,8,6;,
  4;16,17,4,8;,
  4;18,9,30,31;,
  4;32,33,34,19;,
  4;32,19,35,36;,
  4;31,0,12,20;,
  4;19,34,37,21;,
  4;19,21,38,35;,
  4;7,1,11,22;,
  4;5,5,10,10;,
  4;3,22,11,3;,
  4;23,39,40,24;,
  4;23,24,16,14;,
  4;23,14,41,25;,
  4;24,40,42,26;,
  4;24,26,17,16;,
  4;43,20,12,27;,
  4;43,27,1,7;,
  4;44,45,45,21;,
  4;27,12,13,28;,
  4;27,28,11,1;,
  4;21,3,3,29;,
  4;28,13,15,46;,
  4;28,46,47,11;,
  3;18,31,48;,
  3;6,41,14;,
  3;49,10,10;,
  3;23,25,39;,
  3;44,21,37;,
  3;21,29,38;,
  4;62,63,59,50;,
  4;63,65,52,59;,
  4;64,56,58,66;,
  4;66,58,54,67;,
  4;68,80,81,59;,
  4;82,69,83,84;,
  4;82,85,86,69;,
  4;80,70,62,50;,
  4;69,71,87,83;,
  4;69,86,88,71;,
  4;57,72,61,51;,
  4;55,60,60,55;,
  4;53,53,61,72;,
  4;73,74,89,90;,
  4;73,64,66,74;,
  4;73,75,91,64;,
  4;74,76,92,89;,
  4;74,66,67,76;,
  4;93,77,62,70;,
  4;93,57,51,77;,
  4;94,71,95,95;,
  4;77,78,63,62;,
  4;77,51,61,78;,
  4;71,79,53,53;,
  4;78,96,65,63;,
  4;78,61,97,96;,
  3;68,98,80;,
  3;56,64,91;,
  3;99,60,60;,
  3;73,90,75;,
  3;94,87,71;,
  3;71,88,79;,
  4;107,104,101,107;,
  4;107,107,103,103;,
  4;108,110,105,100;,
  4;109,138,106,106;,
  4;110,111,102,105;,
  4;106,106,139,112;,
  4;113,112,140,113;,
  4;113,113,101,114;,
  4;141,142,143,141;,
  4;144,144,145,145;,
  4;114,101,115,115;,
  4;142,146,146,109;,
  4;111,110,147,148;,
  4;149,150,147,110;,
  3;151,151,151;,
  3;152,152,152;,
  3;153,153,153;,
  3;144,144,154;,
  3;141,141,155;,
  3;149,110,108;,
  4;122,123,117,119;,
  4;122,103,103,123;,
  4;124,116,120,126;,
  4;125,121,121,156;,
  4;126,120,118,127;,
  4;121,128,157,121;,
  4;129,158,158,130;,
  4;159,125,159,131;,
  3;120,160,118;,
  3;161,116,161;,
  3;162,162,162;,
  3;163,164,163;,
  3;165,165,165;,
  3;166,124,126;,
  4;132,129,130,133;,
  4;167,167,117,123;,
  4;132,168,168,134;,
  4;132,134,128,169;,
  4;133,130,131,135;,
  4;133,170,119,117;,
  4;136,171,171,136;,
  4;136,136,163,163;,
  4;172,173,126,137;,
  4;172,137,174,175;,
  4;176,177,174,137;,
  4;176,137,126,127;,
  4;178,178,178,178;,
  4;179,179,179,179;,
  4;180,180,180,180;,
  4;191,191,191,191;,
  4;192,192,192,192;,
  4;190,190,190,190;,
  3;181,189,182;,
  3;182,189,183;,
  3;183,189,184;,
  3;184,185,185;,
  3;185,185,186;,
  3;186,187,187;,
  3;187,187,188;,
  3;188,193,181;,
  3;190,190,190;,
  3;190,190,190;,
  3;190,190,190;,
  3;190,190,190;,
  3;190,190,190;,
  3;190,190,190;,
  3;190,190,190;,
  3;190,190,190;,
  4;194,194,194,194;,
  4;195,195,195,195;,
  4;196,196,196,196;,
  4;197,197,197,197;,
  4;198,198,198,198;,
  4;199,199,199,199;,
  4;194,194,194,194;,
  4;195,195,195,195;,
  4;196,196,196,196;,
  4;197,197,197,197;,
  4;198,198,198,198;,
  4;199,199,199,199;;
 }
 MeshTextureCoords {
  342;
  0.000000;0.397140;,
  0.000000;0.000000;,
  0.494470;0.000000;,
  0.494470;0.397140;,
  1.000000;0.000000;,
  1.000000;0.397140;,
  1.000000;0.397140;,
  0.505530;0.397140;,
  0.505530;0.000000;,
  1.000000;0.000000;,
  0.000000;0.397140;,
  0.000000;0.000000;,
  0.494470;0.797460;,
  0.494470;1.000000;,
  0.000000;1.000000;,
  0.000000;0.797460;,
  0.494470;0.000000;,
  1.000000;0.000000;,
  1.000000;0.797460;,
  1.000000;1.000000;,
  0.797460;0.000000;,
  1.000000;0.000000;,
  1.000000;0.397140;,
  0.797460;0.397140;,
  0.202540;0.000000;,
  1.000000;0.397140;,
  0.202540;0.397140;,
  0.000000;0.397140;,
  0.000000;0.000000;,
  0.000000;0.202540;,
  0.000000;0.000000;,
  0.494470;0.000000;,
  0.494470;0.202540;,
  1.000000;0.202540;,
  1.000000;1.000000;,
  0.494470;1.000000;,
  1.000000;0.000000;,
  1.000000;0.588090;,
  1.000000;1.000000;,
  0.505530;1.000000;,
  0.505530;0.588090;,
  0.000000;0.588090;,
  0.000000;0.397140;,
  0.797460;0.588090;,
  0.000000;1.000000;,
  0.000000;0.588090;,
  1.000000;0.588090;,
  1.000000;1.000000;,
  0.797460;1.000000;,
  1.000000;0.588090;,
  0.202540;1.000000;,
  0.202540;0.588090;,
  0.000000;0.588090;,
  0.494470;0.588090;,
  0.494470;1.000000;,
  0.000000;1.000000;,
  0.000000;1.000000;,
  0.000000;0.588090;,
  1.000000;0.588090;,
  1.000000;1.000000;,
  0.247240;0.797460;,
  0.000000;0.398730;,
  0.398730;0.000000;,
  0.398730;0.198570;,
  0.000000;0.601270;,
  0.247240;0.601270;,
  0.000000;0.794040;,
  0.398730;0.794040;,
  0.601270;0.588090;,
  0.202540;0.492610;,
  0.101270;0.492610;,
  0.000000;0.397140;,
  0.494470;0.397140;,
  0.494470;0.000000;,
  0.000000;0.000000;,
  1.000000;0.397140;,
  1.000000;0.000000;,
  1.000000;0.397140;,
  1.000000;0.000000;,
  0.505530;0.000000;,
  0.505530;0.397140;,
  0.000000;0.000000;,
  0.000000;0.397140;,
  0.494470;0.797460;,
  0.000000;0.797460;,
  0.000000;1.000000;,
  0.494470;1.000000;,
  1.000000;0.797460;,
  1.000000;0.000000;,
  0.494470;0.000000;,
  1.000000;1.000000;,
  0.797460;0.000000;,
  0.797460;0.397140;,
  1.000000;0.397140;,
  1.000000;0.000000;,
  0.202540;0.000000;,
  0.202540;0.397140;,
  1.000000;0.397140;,
  0.000000;0.000000;,
  0.000000;0.397140;,
  0.000000;0.202540;,
  0.494470;0.202540;,
  0.494470;0.000000;,
  0.000000;0.000000;,
  1.000000;0.202540;,
  0.494470;1.000000;,
  1.000000;1.000000;,
  1.000000;0.000000;,
  1.000000;0.588090;,
  0.505530;0.588090;,
  0.505530;1.000000;,
  1.000000;1.000000;,
  0.000000;0.588090;,
  0.797460;0.588090;,
  0.000000;0.397140;,
  0.000000;0.588090;,
  0.000000;1.000000;,
  1.000000;0.588090;,
  0.797460;1.000000;,
  1.000000;1.000000;,
  1.000000;0.588090;,
  0.202540;0.588090;,
  0.202540;1.000000;,
  0.000000;0.588090;,
  0.494470;0.588090;,
  0.000000;1.000000;,
  0.494470;1.000000;,
  0.000000;0.588090;,
  0.000000;1.000000;,
  1.000000;0.588090;,
  1.000000;1.000000;,
  0.247240;0.797460;,
  0.000000;0.398730;,
  0.398730;0.000000;,
  0.398730;0.198570;,
  0.000000;0.601270;,
  0.247240;0.601270;,
  0.000000;0.794040;,
  0.398730;0.794040;,
  0.601270;0.588090;,
  0.202540;0.492610;,
  0.101270;0.492610;,
  0.534680;1.000000;,
  0.000000;1.000000;,
  0.000000;0.000000;,
  0.534680;0.000000;,
  1.000000;0.000000;,
  1.000000;1.000000;,
  1.000000;0.693890;,
  0.465320;0.693890;,
  0.465320;0.000000;,
  1.000000;0.000000;,
  0.000000;0.693890;,
  0.000000;0.000000;,
  0.534680;0.000000;,
  0.534680;0.693890;,
  0.000000;0.693890;,
  0.000000;0.000000;,
  1.000000;0.000000;,
  1.000000;0.693890;,
  0.534680;0.776570;,
  1.000000;0.776570;,
  1.000000;1.000000;,
  0.534680;1.000000;,
  0.000000;1.000000;,
  0.000000;0.776570;,
  0.000000;0.776570;,
  1.000000;0.776570;,
  0.000000;1.000000;,
  1.000000;0.776570;,
  1.000000;1.000000;,
  0.000000;0.776570;,
  0.000000;0.693890;,
  1.000000;0.693890;,
  0.000000;0.776570;,
  0.465320;0.776570;,
  0.465320;1.000000;,
  0.000000;1.000000;,
  1.000000;0.776570;,
  1.000000;1.000000;,
  0.767340;0.000000;,
  1.000000;0.500000;,
  0.534680;1.000000;,
  0.267340;0.000000;,
  0.267340;0.500000;,
  0.000000;1.000000;,
  0.000000;0.346950;,
  0.500000;0.000000;,
  1.000000;0.346950;,
  0.500000;0.346950;,
  0.767340;0.776570;,
  0.767340;0.735230;,
  0.732660;0.776570;,
  0.465320;0.735230;,
  0.534680;1.000000;,
  0.534680;0.000000;,
  0.000000;0.000000;,
  0.000000;1.000000;,
  1.000000;1.000000;,
  1.000000;0.000000;,
  1.000000;0.693890;,
  1.000000;0.000000;,
  0.465320;0.000000;,
  0.465320;0.693890;,
  0.000000;0.693890;,
  0.534680;0.693890;,
  0.534680;0.000000;,
  0.000000;0.000000;,
  0.000000;0.000000;,
  0.000000;0.693890;,
  1.000000;0.693890;,
  1.000000;0.000000;,
  0.534680;0.776570;,
  0.000000;0.776570;,
  1.000000;0.776570;,
  1.000000;0.693890;,
  0.000000;0.693890;,
  0.000000;0.776570;,
  0.767340;0.000000;,
  0.534680;1.000000;,
  1.000000;0.500000;,
  0.267340;0.000000;,
  0.000000;1.000000;,
  0.267340;0.500000;,
  0.000000;0.346950;,
  0.500000;0.000000;,
  1.000000;0.346950;,
  0.500000;0.346950;,
  0.767340;0.776570;,
  0.767340;0.735230;,
  0.732660;0.776570;,
  0.465320;0.735230;,
  0.534680;0.845360;,
  0.000000;0.845360;,
  0.000000;1.000000;,
  0.534680;1.000000;,
  1.000000;1.000000;,
  1.000000;0.845360;,
  1.000000;0.776570;,
  1.000000;0.845360;,
  0.000000;0.845360;,
  1.000000;1.000000;,
  0.000000;0.845360;,
  0.000000;1.000000;,
  1.000000;0.845360;,
  1.000000;0.776570;,
  0.000000;0.776570;,
  1.000000;0.845360;,
  1.000000;0.776570;,
  0.465320;0.776570;,
  0.465320;0.845360;,
  0.465320;1.000000;,
  1.000000;1.000000;,
  0.000000;0.845360;,
  0.000000;1.000000;,
  0.000000;0.776570;,
  0.000000;0.000000;,
  1.000000;0.000000;,
  1.000000;1.000000;,
  0.000000;1.000000;,
  0.000000;0.000000;,
  1.000000;0.000000;,
  1.000000;1.000000;,
  0.000000;1.000000;,
  0.000000;0.000000;,
  1.000000;0.000000;,
  1.000000;1.000000;,
  0.000000;1.000000;,
  0.000000;0.000000;,
  1.000000;0.000000;,
  1.000000;1.000000;,
  0.000000;1.000000;,
  1.000000;1.000000;,
  0.000000;1.000000;,
  0.000000;0.000000;,
  1.000000;0.000000;,
  0.000000;1.000000;,
  0.062500;0.000000;,
  0.125000;1.000000;,
  0.125000;0.000000;,
  0.250000;1.000000;,
  0.187500;0.000000;,
  0.375000;1.000000;,
  0.250000;0.000000;,
  0.500000;1.000000;,
  0.312500;0.000000;,
  0.625000;1.000000;,
  0.375000;0.000000;,
  0.750000;1.000000;,
  0.437500;0.000000;,
  0.875000;1.000000;,
  0.500000;0.000000;,
  1.000000;1.000000;,
  0.000000;0.000000;,
  0.000000;0.000000;,
  0.000000;0.000000;,
  0.000000;0.000000;,
  0.000000;0.000000;,
  0.000000;0.000000;,
  0.000000;0.000000;,
  0.000000;0.000000;,
  0.000000;0.000000;,
  0.000000;0.000000;,
  1.000000;0.000000;,
  1.000000;1.000000;,
  0.000000;1.000000;,
  0.000000;0.000000;,
  1.000000;0.000000;,
  1.000000;1.000000;,
  0.000000;1.000000;,
  0.000000;0.000000;,
  1.000000;0.000000;,
  1.000000;1.000000;,
  0.000000;1.000000;,
  0.000000;0.000000;,
  1.000000;0.000000;,
  1.000000;1.000000;,
  0.000000;1.000000;,
  1.000000;1.000000;,
  0.000000;1.000000;,
  0.000000;0.000000;,
  1.000000;0.000000;,
  0.000000;0.000000;,
  1.000000;0.000000;,
  1.000000;1.000000;,
  0.000000;1.000000;,
  0.000000;0.000000;,
  1.000000;0.000000;,
  1.000000;1.000000;,
  0.000000;1.000000;,
  0.000000;0.000000;,
  1.000000;0.000000;,
  1.000000;1.000000;,
  0.000000;1.000000;,
  0.000000;0.000000;,
  1.000000;0.000000;,
  1.000000;1.000000;,
  0.000000;1.000000;,
  1.000000;1.000000;,
  0.000000;1.000000;,
  0.000000;0.000000;,
  1.000000;0.000000;;
 }
}
