//==============================================================================
//
// 説明書ファイル [説明書.txt]
// Author : 浜田琉雅
//
// 最終更新日 : 2022/12/8
//==============================================================================

作品を見てくださりありがとうございます。

◆このディレクトリについて◆
ディレクトリ構成図は以下のようになっています。
.
┃
┣━ 01_エネミーツール
┣━ 02_エフェクトーツール
┗━  説明書.txt

◆01_エネミーツール
今回の制作で使用したツールを設置しています
今回使ったツールは一年生に作成してそこからの更新を続けたため
ＣとＣ＋＋が混同したコードとなっています

◆02_エフェクトーツール
今回の制作で使用したツールを設置しています
チームで制作しています
じぶんの担当箇所はGUIファイルの入出力エフェクトの基盤作成です
ファイルPASSのシステムは現在改良中です

