#==============================================================================
#
# 『モーションビューワ』スクリプトファイル [motion.txt]
# Author : AKIRA TANAKA
#
#==============================================================================
SCRIPT			# この行は絶対消さないこと！

#------------------------------------------------------------------------------
# モデル数
#------------------------------------------------------------------------------
NUM_MODEL = 8

#------------------------------------------------------------------------------
# モデルファイル名
#------------------------------------------------------------------------------

MODEL_FILENAME = Data/MODEL/Fox/Laser.x			

#------------------------------------------------------------------------------
# キャラクター情報
#------------------------------------------------------------------------------
CHARACTERSET
	

PARTSSET						# [７]合体剣
	PARENT = 1					# (親)
	INDEX = 7
	POS = -1.0 8.0 -13.0
	ROT = 0.0 3.14 0.00
END_PARTSSET

END_CHARACTERSET

 
#------------------------------------------------------------------------------
# モーション情報
#------------------------------------------------------------------------------
#---------------------------------------
# ニュートラルモーション
#---------------------------------------
#========================================
#
# モーション情報
#  [ モーション番号 : 0 ]
#
#========================================

MOTIONSET
	LOOP = 1		# ループするかどうか[0:ループしない / 1:ループする]
	NUM_KEY = 2		# キー数

	KEYSET			# --- << KEY : 0 / 2 >> ---
		FRAME = 40
		KEY	# ----- [ 0 ] -----
			POS = 0.00 -0.28 0.00
			ROT = 0.00 0.00 0.00
		END_KEY

		KEY	# ----- [ 1 ] -----
			POS = 0.00 0.00 0.00
			ROT = 0.00 0.00 0.00
		END_KEY

		KEY	# ----- [ 2 ] -----
			POS = 0.00 0.00 0.00
			ROT = 0.00 0.00 0.00
		END_KEY

		KEY	# ----- [ 3 ] -----
			POS = 0.00 0.00 0.00
			ROT = 0.00 0.00 0.00
		END_KEY

		KEY	# ----- [ 4 ] -----
			POS = 0.00 0.00 0.00
			ROT = 0.00 0.00 0.00
		END_KEY

		KEY	# ----- [ 5 ] -----
			POS = 0.00 0.00 0.00
			ROT = 0.00 0.00 0.00
		END_KEY

		KEY	# ----- [ 6 ] -----
			POS = 0.00 0.14 0.00
			ROT = 0.00 0.00 -0.79
		END_KEY
		
		KEY	# ----- [ 7 ] -----
			POS = 0.00 0.00 0.00
			ROT = 0.00 0.00 0.00
		END_KEY
	END_KEYSET

	KEYSET			# --- << KEY : 1 / 2 >> ---
		FRAME = 40
		KEY	# ----- [ 0 ] -----
			POS = 0.00 0.00 0.00
			ROT = 0.00 0.00 0.00
		END_KEY

		KEY	# ----- [ 1 ] -----
			POS = 0.00 0.00 0.00
			ROT = 0.00 0.00 0.00
		END_KEY

		KEY	# ----- [ 2 ] -----
			POS = 0.00 0.00 0.00
			ROT = 0.00 0.00 0.00
		END_KEY

		KEY	# ----- [ 3 ] -----
			POS = 0.00 0.00 0.00
			ROT = 0.00 0.00 0.00
		END_KEY

		KEY	# ----- [ 4 ] -----
			POS = 0.00 0.00 0.00
			ROT = 0.00 0.00 0.00
		END_KEY

		KEY	# ----- [ 5 ] -----
			POS = 0.00 0.00 0.00
			ROT = 0.00 0.00 0.00
		END_KEY

		KEY	# ----- [ 6 ] -----
			POS = 0.00 0.00 0.00
			ROT = 0.00 0.00 0.82
		END_KEY
		
			KEY	# ----- [ 7 ] -----
			POS = 0.00 0.00 0.00
			ROT = 0.00 0.00 0.00
		END_KEY
	END_KEYSET
END_MOTIONSET




#---------------------------------------
# 移動モーション
#---------------------------------------
MOTIONSET
	LOOP = 0		# ループするかどうか[0:ループしない / 1:ループする]
	NUM_KEY = 2		# キー数

	KEYSET			# --- << KEY : 0 / 2 >> ---
		FRAME = 20
		KEY	# ----- [ 0 ] -----
			POS = -0.09 0.10 0.00
			ROT = 0.00 0.00 0.00
		END_KEY

		KEY	# ----- [ 1 ] -----
			POS = 0.00 0.00 0.00
			ROT = 0.00 0.00 0.00
		END_KEY

		KEY	# ----- [ 2 ] -----
			POS = 0.00 0.00 0.00
			ROT = 0.00 0.00 0.00
		END_KEY

		KEY	# ----- [ 3 ] -----
			POS = 0.00 0.00 0.00
			ROT = -0.91 0.00 0.00
		END_KEY

		KEY	# ----- [ 4 ] -----
			POS = 0.00 0.00 0.00
			ROT = -0.91 0.00 0.00
		END_KEY

		KEY	# ----- [ 5 ] -----
			POS = 0.00 0.00 0.00
			ROT = 0.00 0.00 0.00
		END_KEY

		KEY	# ----- [ 6 ] -----
			POS = 0.00 0.00 0.00
			ROT = 0.00 0.00 -1.01
		END_KEY
		
			KEY	# ----- [ 7 ] -----
			POS = 0.00 0.00 0.00
			ROT = 0.00 0.00 0.00
		END_KEY
	END_KEYSET

	KEYSET			# --- << KEY : 1 / 2 >> ---
		FRAME = 20
		KEY	# ----- [ 0 ] -----
			POS = -0.10 0.00 0.00
			ROT = 0.00 0.00 0.00
		END_KEY

		KEY	# ----- [ 1 ] -----
			POS = 0.00 0.00 0.00
			ROT = 0.00 0.00 0.00
		END_KEY

		KEY	# ----- [ 2 ] -----
			POS = 0.00 0.00 0.00
			ROT = -0.91 0.00 0.00
		END_KEY

		KEY	# ----- [ 3 ] -----
			POS = 0.00 0.00 0.00
			ROT = 0.00 0.00 0.00
		END_KEY

		KEY	# ----- [ 4 ] -----
			POS = 0.00 0.00 0.00
			ROT = 0.00 0.00 0.00
		END_KEY

		KEY	# ----- [ 5 ] -----
			POS = 0.00 0.00 0.00
			ROT = -0.91 0.00 0.00
		END_KEY

		KEY	# ----- [ 6 ] -----
			POS = 0.00 0.00 0.00
			ROT = 0.00 0.00 1.13
		END_KEY
		
		KEY	# ----- [ 7 ] -----
			POS = 0.00 0.00 0.00
			ROT = 0.00 0.00 0.00
		END_KEY
	END_KEYSET
END_MOTIONSET

#---------------------------------------
# アクションモーション
#---------------------------------------
#========================================
#
# モーション情報
#  [ モーション番号 : 2 ]
#
#========================================

MOTIONSET
	LOOP = 0		# ループするかどうか[0:ループしない / 1:ループする]
	NUM_KEY = 3		# キー数

	KEYSET			# --- << KEY : 0 / 3 >> ---
		FRAME = 10
		KEY	# ----- [ 0 ] -----
			POS = 0.00 0.00 0.00
			ROT = 0.22 0.00 0.00
		END_KEY

		KEY	# ----- [ 1 ] -----
			POS = 0.00 0.00 0.00
			ROT = 0.00 0.00 0.00
		END_KEY

		KEY	# ----- [ 2 ] -----
			POS = 0.00 0.00 0.00
			ROT = 0.00 0.00 0.00
		END_KEY

		KEY	# ----- [ 3 ] -----
			POS = 0.00 0.00 0.00
			ROT = 0.00 0.00 0.00
		END_KEY

		KEY	# ----- [ 4 ] -----
			POS = 0.00 0.00 0.00
			ROT = 0.00 0.00 0.00
		END_KEY

		KEY	# ----- [ 5 ] -----
			POS = 0.00 0.00 0.00
			ROT = 0.00 0.00 0.00
		END_KEY

		KEY	# ----- [ 6 ] -----
			POS = 0.00 0.00 0.00
			ROT = 0.00 -0.75 0.00
		END_KEY

		KEY	# ----- [ 7 ] -----
			POS = 0.00 0.00 0.00
			ROT = 0.00 0.00 0.00
		END_KEY
	END_KEYSET

	KEYSET			# --- << KEY : 1 / 3 >> ---
		FRAME = 20
		KEY	# ----- [ 0 ] -----
			POS = 0.00 0.00 0.00
			ROT = -0.22 0.00 0.00
		END_KEY

		KEY	# ----- [ 1 ] -----
			POS = 0.00 0.00 0.00
			ROT = 0.00 0.00 0.00
		END_KEY

		KEY	# ----- [ 2 ] -----
			POS = 0.00 0.00 0.00
			ROT = 0.00 0.00 0.00
		END_KEY

		KEY	# ----- [ 3 ] -----
			POS = 0.00 0.00 0.00
			ROT = 0.00 0.00 0.00
		END_KEY

		KEY	# ----- [ 4 ] -----
			POS = 0.00 0.00 0.00
			ROT = 0.00 0.00 0.00
		END_KEY

		KEY	# ----- [ 5 ] -----
			POS = 0.00 0.00 0.00
			ROT = 0.00 0.00 0.00
		END_KEY

		KEY	# ----- [ 6 ] -----
			POS = 0.00 0.00 0.00
			ROT = 0.00 0.00 0.00
		END_KEY

		KEY	# ----- [ 7 ] -----
			POS = 0.00 0.00 0.00
			ROT = 0.00 0.00 0.00
		END_KEY
	END_KEYSET

	KEYSET			# --- << KEY : 2 / 3 >> ---
		FRAME = 4
		KEY	# ----- [ 0 ] -----
			POS = 0.00 0.00 0.00
			ROT = 0.06 0.00 0.00
		END_KEY

		KEY	# ----- [ 1 ] -----
			POS = 0.00 0.00 0.00
			ROT = 0.00 0.00 0.00
		END_KEY

		KEY	# ----- [ 2 ] -----
			POS = 0.00 0.00 0.00
			ROT = 0.00 0.00 0.00
		END_KEY

		KEY	# ----- [ 3 ] -----
			POS = 0.00 0.00 0.00
			ROT = 0.00 0.00 0.00
		END_KEY

		KEY	# ----- [ 4 ] -----
			POS = 0.00 0.00 0.00
			ROT = 0.00 0.00 0.00
		END_KEY

		KEY	# ----- [ 5 ] -----
			POS = 0.00 0.00 0.00
			ROT = 0.00 0.00 0.00
		END_KEY

		KEY	# ----- [ 6 ] -----
			POS = 0.00 0.00 0.00
			ROT = 0.00 0.00 -1.48
		END_KEY

		KEY	# ----- [ 7 ] -----
			POS = 0.00 0.00 0.00
			ROT = 0.00 0.00 0.00
		END_KEY
	END_KEYSET
END_MOTIONSET



#---------------------------------------
# ジャンプモーション
#---------------------------------------
#========================================
#
# モーション情報
#  [ モーション番号 : 3 ]
#
#========================================

MOTIONSET
	LOOP = 0		# ループするかどうか[0:ループしない / 1:ループする]
	NUM_KEY = 4		# キー数

	KEYSET			# --- << KEY : 0 / 4 >> ---
		FRAME = 10
		KEY	# ----- [ 0 ] -----
			POS = 0.00 0.00 0.30
			ROT = -0.22 0.03 0.00
		END_KEY

		KEY	# ----- [ 1 ] -----
			POS = 0.00 0.00 0.00
			ROT = 0.00 0.00 0.00
		END_KEY

		KEY	# ----- [ 2 ] -----
			POS = 0.00 0.00 0.00
			ROT = -0.50 -0.06 0.00
		END_KEY

		KEY	# ----- [ 3 ] -----
			POS = 0.00 0.00 0.00
			ROT = -0.53 0.00 0.00
		END_KEY

		KEY	# ----- [ 4 ] -----
			POS = 0.00 0.00 0.00
			ROT = -0.79 0.00 0.00
		END_KEY

		KEY	# ----- [ 5 ] -----
			POS = 0.00 0.00 0.00
			ROT = -0.72 0.00 0.00
		END_KEY

		KEY	# ----- [ 6 ] -----
			POS = 0.00 0.00 0.00
			ROT = -1.38 0.03 0.94
		END_KEY
		
		KEY	# ----- [ 7 ] -----
			POS = 0.00 0.00 0.00
			ROT = 0.00 0.00 0.00
		END_KEY
	END_KEYSET

	KEYSET			# --- << KEY : 1 / 4 >> ---
		FRAME = 10
		KEY	# ----- [ 0 ] -----
			POS = 0.00 0.00 -0.50
			ROT = -0.13 0.00 0.00
		END_KEY

		KEY	# ----- [ 1 ] -----
			POS = 0.00 0.00 0.00
			ROT = 0.00 0.00 0.00
		END_KEY

		KEY	# ----- [ 2 ] -----
			POS = 0.00 0.00 0.00
			ROT = -0.57 0.00 0.00
		END_KEY

		KEY	# ----- [ 3 ] -----
			POS = 0.00 0.00 0.00
			ROT = -0.69 0.00 0.00
		END_KEY

		KEY	# ----- [ 4 ] -----
			POS = 0.00 0.00 0.00
			ROT = -0.69 0.00 0.00
		END_KEY

		KEY	# ----- [ 5 ] -----
			POS = 0.00 0.00 0.00
			ROT = -0.75 0.00 0.00
		END_KEY

		KEY	# ----- [ 6 ] -----
			POS = 0.00 0.00 0.00
			ROT = -1.38 0.03 -1.95
		END_KEY
		
		KEY	# ----- [ 7 ] -----
			POS = 0.00 0.00 0.00
			ROT = 0.00 0.00 0.00
		END_KEY
	END_KEYSET

	KEYSET			# --- << KEY : 2 / 4 >> ---
		FRAME = 10
		KEY	# ----- [ 0 ] -----
			POS = 0.00 0.00 0.10
			ROT = -0.13 0.00 0.00
		END_KEY

		KEY	# ----- [ 1 ] -----
			POS = 0.00 0.00 0.00
			ROT = 0.00 0.00 0.00
		END_KEY

		KEY	# ----- [ 2 ] -----
			POS = 0.00 0.00 0.00
			ROT = -0.63 0.00 0.00
		END_KEY

		KEY	# ----- [ 3 ] -----
			POS = 0.00 0.00 0.00
			ROT = -0.63 0.00 0.00
		END_KEY

		KEY	# ----- [ 4 ] -----
			POS = 0.00 0.00 0.00
			ROT = -0.60 0.00 0.00
		END_KEY

		KEY	# ----- [ 5 ] -----
			POS = 0.00 0.00 0.00
			ROT = -0.53 0.00 0.00
		END_KEY

		KEY	# ----- [ 6 ] -----
			POS = 0.00 0.00 0.00
			ROT = -1.38 0.03 2.61
		END_KEY
		
		KEY	# ----- [ 7 ] -----
			POS = 0.00 0.00 0.00
			ROT = 0.00 0.00 0.00
		END_KEY
	END_KEYSET

	KEYSET			# --- << KEY : 3 / 4 >> ---
		FRAME = 10
		KEY	# ----- [ 0 ] -----
			POS = 0.00 0.00 0.10
			ROT = -0.22 0.03 0.00
		END_KEY

		KEY	# ----- [ 1 ] -----
			POS = 0.00 0.00 0.00
			ROT = 0.00 0.00 0.00
		END_KEY

		KEY	# ----- [ 2 ] -----
			POS = 0.00 0.00 0.00
			ROT = -0.63 0.00 0.00
		END_KEY

		KEY	# ----- [ 3 ] -----
			POS = 0.00 0.00 0.00
			ROT = -0.57 0.00 0.00
		END_KEY

		KEY	# ----- [ 4 ] -----
			POS = 0.00 0.00 0.00
			ROT = -0.75 0.00 0.00
		END_KEY

		KEY	# ----- [ 5 ] -----
			POS = 0.00 0.00 0.00
			ROT = -0.91 0.00 0.00
		END_KEY

		KEY	# ----- [ 6 ] -----
			POS = 0.00 0.00 0.00
			ROT = -1.38 0.03 0.94
		END_KEY
		
		KEY	# ----- [ 7 ] -----
			POS = 0.00 0.00 0.00
			ROT = 0.00 0.00 0.00
		END_KEY
	END_KEYSET
END_MOTIONSET



#---------------------------------------
# 着地モーション
#---------------------------------------

MOTIONSET
	LOOP = 0		# ループするかどうか[0:ループしない / 1:ループする]
	NUM_KEY = 2		# キー数

	KEYSET			# --- << KEY : 0 / 2 >> ---
		FRAME = 29
		KEY	# ----- [ 0 ] -----
			POS = 0.00 0.00 0.00
			ROT = -0.22 0.00 0.00
		END_KEY

		KEY	# ----- [ 1 ] -----
			POS = 0.00 0.00 0.00
			ROT = 0.00 0.00 0.00
		END_KEY

		KEY	# ----- [ 2 ] -----
			POS = 0.00 0.00 0.00
			ROT = -0.06 0.00 0.00
		END_KEY

		KEY	# ----- [ 3 ] -----
			POS = 0.00 0.00 0.00
			ROT = -0.31 0.00 0.00
		END_KEY

		KEY	# ----- [ 4 ] -----
			POS = 0.00 0.00 0.00
			ROT = -0.35 0.00 0.00
		END_KEY

		KEY	# ----- [ 5 ] -----
			POS = 0.00 0.00 0.00
			ROT = -0.38 0.00 0.00
		END_KEY

		KEY	# ----- [ 6 ] -----
			POS = 0.00 0.00 0.00
			ROT = -0.75 0.00 0.00
		END_KEY
		
		KEY	# ----- [ 7 ] -----
			POS = 0.00 0.00 0.00
			ROT = 0.00 0.00 0.00
		END_KEY
	END_KEYSET

	KEYSET			# --- << KEY : 1 / 2 >> ---
		FRAME = 30
		KEY	# ----- [ 0 ] -----
			POS = 0.00 0.00 0.00
			ROT = 0.00 0.00 0.00
		END_KEY

		KEY	# ----- [ 1 ] -----
			POS = 0.00 0.00 0.00
			ROT = 0.00 0.00 0.00
		END_KEY

		KEY	# ----- [ 2 ] -----
			POS = 0.00 0.00 0.00
			ROT = 0.00 0.00 -0.53
		END_KEY

		KEY	# ----- [ 3 ] -----
			POS = 0.00 0.00 0.00
			ROT = 0.00 0.00 0.63
		END_KEY

		KEY	# ----- [ 4 ] -----
			POS = 0.00 0.00 0.00
			ROT = 0.00 0.00 -0.44
		END_KEY

		KEY	# ----- [ 5 ] -----
			POS = 0.00 0.00 0.00
			ROT = 0.00 0.00 0.53
		END_KEY

		KEY	# ----- [ 6 ] -----
			POS = 0.00 0.00 0.00
			ROT = 0.00 0.00 0.00
		END_KEY
		
		KEY	# ----- [ 7 ] -----
			POS = 0.00 0.00 0.00
			ROT = 0.00 0.00 0.00
		END_KEY
	END_KEYSET
END_MOTIONSET




END_SCRIPT		# この行は絶対消さないこと！
