xof 0302txt 0064
template Header {
 <3D82AB43-62DA-11cf-AB39-0020AF71E433>
 WORD major;
 WORD minor;
 DWORD flags;
}

template Vector {
 <3D82AB5E-62DA-11cf-AB39-0020AF71E433>
 FLOAT x;
 FLOAT y;
 FLOAT z;
}

template Coords2d {
 <F6F23F44-7686-11cf-8F52-0040333594A3>
 FLOAT u;
 FLOAT v;
}

template Matrix4x4 {
 <F6F23F45-7686-11cf-8F52-0040333594A3>
 array FLOAT matrix[16];
}

template ColorRGBA {
 <35FF44E0-6C7C-11cf-8F52-0040333594A3>
 FLOAT red;
 FLOAT green;
 FLOAT blue;
 FLOAT alpha;
}

template ColorRGB {
 <D3E16E81-7835-11cf-8F52-0040333594A3>
 FLOAT red;
 FLOAT green;
 FLOAT blue;
}

template IndexedColor {
 <1630B820-7842-11cf-8F52-0040333594A3>
 DWORD index;
 ColorRGBA indexColor;
}

template Boolean {
 <4885AE61-78E8-11cf-8F52-0040333594A3>
 WORD truefalse;
}

template Boolean2d {
 <4885AE63-78E8-11cf-8F52-0040333594A3>
 Boolean u;
 Boolean v;
}

template MaterialWrap {
 <4885AE60-78E8-11cf-8F52-0040333594A3>
 Boolean u;
 Boolean v;
}

template TextureFilename {
 <A42790E1-7810-11cf-8F52-0040333594A3>
 STRING filename;
}

template Material {
 <3D82AB4D-62DA-11cf-AB39-0020AF71E433>
 ColorRGBA faceColor;
 FLOAT power;
 ColorRGB specularColor;
 ColorRGB emissiveColor;
 [...]
}

template MeshFace {
 <3D82AB5F-62DA-11cf-AB39-0020AF71E433>
 DWORD nFaceVertexIndices;
 array DWORD faceVertexIndices[nFaceVertexIndices];
}

template MeshFaceWraps {
 <4885AE62-78E8-11cf-8F52-0040333594A3>
 DWORD nFaceWrapValues;
 Boolean2d faceWrapValues;
}

template MeshTextureCoords {
 <F6F23F40-7686-11cf-8F52-0040333594A3>
 DWORD nTextureCoords;
 array Coords2d textureCoords[nTextureCoords];
}

template MeshMaterialList {
 <F6F23F42-7686-11cf-8F52-0040333594A3>
 DWORD nMaterials;
 DWORD nFaceIndexes;
 array DWORD faceIndexes[nFaceIndexes];
 [Material]
}

template MeshNormals {
 <F6F23F43-7686-11cf-8F52-0040333594A3>
 DWORD nNormals;
 array Vector normals[nNormals];
 DWORD nFaceNormals;
 array MeshFace faceNormals[nFaceNormals];
}

template MeshVertexColors {
 <1630B821-7842-11cf-8F52-0040333594A3>
 DWORD nVertexColors;
 array IndexedColor vertexColors[nVertexColors];
}

template Mesh {
 <3D82AB44-62DA-11cf-AB39-0020AF71E433>
 DWORD nVertices;
 array Vector vertices[nVertices];
 DWORD nFaces;
 array MeshFace faces[nFaces];
 [...]
}

Header{
1;
0;
1;
}

Mesh {
 160;
 -27.20422;0.48810;-6.28863;,
 -13.31108;14.87493;-6.28863;,
 -11.08340;12.72365;-6.28863;,
 -24.97651;-1.66315;-6.28863;,
 -13.31108;14.87493;-6.28863;,
 -13.31108;14.87493;6.28863;,
 -11.08340;12.72365;6.28863;,
 -11.08340;12.72365;-6.28863;,
 -13.31108;14.87493;6.28863;,
 -27.20422;0.48810;6.28863;,
 -24.97651;-1.66315;6.28863;,
 -11.08340;12.72365;6.28863;,
 -27.20422;0.48810;6.28863;,
 -27.20422;0.48810;-6.28863;,
 -24.97651;-1.66315;-6.28863;,
 -24.97651;-1.66315;6.28863;,
 -13.31108;14.87493;-6.28863;,
 -27.20422;0.48810;-6.28863;,
 -24.97651;-1.66315;-6.28863;,
 -11.08340;12.72365;-6.28863;,
 13.67238;14.97544;-6.28863;,
 27.31239;0.34836;-6.28863;,
 25.04746;-1.76365;-6.28863;,
 11.40748;12.86337;-6.28863;,
 27.31239;0.34836;-6.28863;,
 27.31239;0.34836;6.28863;,
 25.04746;-1.76365;6.28863;,
 25.04746;-1.76365;-6.28863;,
 27.31239;0.34836;6.28863;,
 13.67238;14.97544;6.28863;,
 11.40748;12.86337;6.28863;,
 25.04746;-1.76365;6.28863;,
 13.67238;14.97544;6.28863;,
 13.67238;14.97544;-6.28863;,
 11.40748;12.86337;-6.28863;,
 11.40748;12.86337;6.28863;,
 27.31239;0.34836;-6.28863;,
 13.67238;14.97544;-6.28863;,
 11.40748;12.86337;-6.28863;,
 25.04746;-1.76365;-6.28863;,
 -4.80384;11.05089;15.76464;,
 4.80384;11.05089;15.76464;,
 4.80384;-8.94912;15.76464;,
 -4.80384;-8.94912;15.76464;,
 4.80384;11.05089;15.76464;,
 4.80384;11.05089;18.98756;,
 4.80384;-8.94912;18.98756;,
 4.80384;-8.94912;15.76464;,
 4.80384;11.05089;18.98756;,
 -4.80384;11.05089;18.98756;,
 -4.80384;-8.94912;18.98756;,
 4.80384;-8.94912;18.98756;,
 -4.80384;11.05089;18.98756;,
 -4.80384;11.05089;15.76464;,
 -4.80384;-8.94912;15.76464;,
 -4.80384;-8.94912;18.98756;,
 4.80384;11.05089;15.76464;,
 -4.80384;11.05089;15.76464;,
 -4.80384;-8.94912;15.76464;,
 4.80384;-8.94912;15.76464;,
 -4.80384;11.05089;-16.51615;,
 4.80384;11.05089;-16.51615;,
 4.80384;-8.94912;-16.51615;,
 -4.80384;-8.94912;-16.51615;,
 4.80384;11.05089;-16.51615;,
 4.80384;11.05089;-13.29322;,
 4.80384;-8.94912;-13.29322;,
 4.80384;-8.94912;-16.51615;,
 4.80384;11.05089;-13.29322;,
 -4.80384;11.05089;-13.29322;,
 -4.80384;-8.94912;-13.29322;,
 4.80384;-8.94912;-13.29322;,
 -4.80384;11.05089;-13.29322;,
 -4.80384;11.05089;-16.51615;,
 -4.80384;-8.94912;-16.51615;,
 -4.80384;-8.94912;-13.29322;,
 4.80384;11.05089;-16.51615;,
 -4.80384;11.05089;-16.51615;,
 -4.80384;-8.94912;-16.51615;,
 4.80384;-8.94912;-16.51615;,
 23.10296;-1.82780;15.76464;,
 14.78247;-6.63167;15.76464;,
 4.78249;10.68886;15.76464;,
 13.10298;15.49272;15.76464;,
 14.78247;-6.63167;15.76464;,
 14.78247;-6.63167;18.98756;,
 4.78249;10.68886;18.98756;,
 4.78249;10.68886;15.76464;,
 14.78247;-6.63167;18.98756;,
 23.10296;-1.82780;18.98756;,
 13.10298;15.49272;18.98756;,
 4.78249;10.68886;18.98756;,
 23.10296;-1.82780;18.98756;,
 23.10296;-1.82780;15.76464;,
 13.10298;15.49272;15.76464;,
 13.10298;15.49272;18.98756;,
 14.78247;-6.63167;15.76464;,
 23.10296;-1.82780;15.76464;,
 13.10298;15.49272;15.76464;,
 4.78249;10.68886;15.76464;,
 -12.22581;-7.78507;15.76464;,
 -21.10217;-4.10841;15.76464;,
 -13.44848;14.36919;15.76464;,
 -4.57213;10.69249;15.76464;,
 -21.10217;-4.10841;15.76464;,
 -21.10217;-4.10841;18.98756;,
 -13.44848;14.36919;18.98756;,
 -13.44848;14.36919;15.76464;,
 -21.10217;-4.10841;18.98756;,
 -12.22581;-7.78507;18.98756;,
 -4.57213;10.69249;18.98756;,
 -13.44848;14.36919;18.98756;,
 -12.22581;-7.78507;18.98756;,
 -12.22581;-7.78507;15.76464;,
 -4.57213;10.69249;15.76464;,
 -4.57213;10.69249;18.98756;,
 -21.10217;-4.10841;15.76464;,
 -12.22581;-7.78507;15.76464;,
 -4.57213;10.69249;15.76464;,
 -13.44848;14.36919;15.76464;,
 -28.52661;-1.14716;15.76464;,
 -36.62968;4.01501;15.76464;,
 -25.88366;20.88284;15.76464;,
 -17.78063;15.72065;15.76464;,
 -36.62968;4.01501;15.76464;,
 -36.62968;4.01501;18.98756;,
 -25.88366;20.88284;18.98756;,
 -25.88366;20.88284;15.76464;,
 -36.62968;4.01501;18.98756;,
 -28.52661;-1.14716;18.98756;,
 -17.78063;15.72065;18.98756;,
 -25.88366;20.88284;18.98756;,
 -28.52661;-1.14716;18.98756;,
 -28.52661;-1.14716;15.76464;,
 -17.78063;15.72065;15.76464;,
 -17.78063;15.72065;18.98756;,
 -36.62968;4.01501;15.76464;,
 -28.52661;-1.14716;15.76464;,
 -17.78063;15.72065;15.76464;,
 -25.88366;20.88284;15.76464;,
 34.53633;3.95944;15.76464;,
 26.21584;-0.84445;15.76464;,
 16.21586;16.47607;15.76464;,
 24.53635;21.27994;15.76464;,
 26.21584;-0.84445;15.76464;,
 26.21584;-0.84445;18.98756;,
 16.21586;16.47607;18.98756;,
 16.21586;16.47607;15.76464;,
 26.21584;-0.84445;18.98756;,
 34.53633;3.95944;18.98756;,
 24.53635;21.27994;18.98756;,
 16.21586;16.47607;18.98756;,
 34.53633;3.95944;18.98756;,
 34.53633;3.95944;15.76464;,
 24.53635;21.27994;15.76464;,
 24.53635;21.27994;18.98756;,
 26.21584;-0.84445;15.76464;,
 34.53633;3.95944;15.76464;,
 24.53635;21.27994;15.76464;,
 16.21586;16.47607;15.76464;;
 
 48;
 4;0,1,2,3;,
 4;4,5,6,7;,
 4;8,9,10,11;,
 4;12,13,14,15;,
 4;12,5,16,17;,
 4;18,19,6,15;,
 4;20,21,22,23;,
 4;24,25,26,27;,
 4;28,29,30,31;,
 4;32,33,34,35;,
 4;32,25,36,37;,
 4;38,39,26,35;,
 4;40,41,42,43;,
 4;44,45,46,47;,
 4;48,49,50,51;,
 4;52,53,54,55;,
 4;52,45,56,57;,
 4;58,59,46,55;,
 4;60,61,62,63;,
 4;64,65,66,67;,
 4;68,69,70,71;,
 4;72,73,74,75;,
 4;72,65,76,77;,
 4;78,79,66,75;,
 4;80,81,82,83;,
 4;84,85,86,87;,
 4;88,89,90,91;,
 4;92,93,94,95;,
 4;92,85,96,97;,
 4;98,99,86,95;,
 4;100,101,102,103;,
 4;104,105,106,107;,
 4;108,109,110,111;,
 4;112,113,114,115;,
 4;112,105,116,117;,
 4;118,119,106,115;,
 4;120,121,122,123;,
 4;124,125,126,127;,
 4;128,129,130,131;,
 4;132,133,134,135;,
 4;132,125,136,137;,
 4;138,139,126,135;,
 4;140,141,142,143;,
 4;144,145,146,147;,
 4;148,149,150,151;,
 4;152,153,154,155;,
 4;152,145,156,157;,
 4;158,159,146,155;;
 
 MeshMaterialList {
  9;
  48;
  5,
  5,
  5,
  5,
  5,
  5,
  5,
  5,
  5,
  5,
  5,
  5,
  5,
  5,
  5,
  5,
  5,
  5,
  5,
  5,
  5,
  5,
  5,
  5,
  5,
  5,
  5,
  5,
  5,
  5,
  5,
  5,
  5,
  5,
  5,
  5,
  5,
  5,
  5,
  5,
  5,
  5,
  5,
  5,
  5,
  5,
  5,
  5;;
  Material {
   0.228800;0.140800;0.050400;1.000000;;
   5.000000;
   0.000000;0.000000;0.000000;;
   0.000000;0.000000;0.000000;;
  }
  Material {
   0.800000;0.238400;0.065600;1.000000;;
   5.000000;
   0.000000;0.000000;0.000000;;
   0.000000;0.000000;0.000000;;
  }
  Material {
   0.800000;0.530400;0.100000;1.000000;;
   5.000000;
   0.000000;0.000000;0.000000;;
   0.000000;0.000000;0.000000;;
  }
  Material {
   0.536800;0.091200;0.060000;1.000000;;
   5.000000;
   0.000000;0.000000;0.000000;;
   0.000000;0.000000;0.000000;;
  }
  Material {
   0.640000;0.392000;0.000000;1.000000;;
   5.000000;
   0.000000;0.000000;0.000000;;
   0.000000;0.000000;0.000000;;
  }
  Material {
   0.241600;0.432800;0.800000;1.000000;;
   5.000000;
   0.000000;0.000000;0.000000;;
   0.000000;0.000000;0.000000;;
  }
  Material {
   0.800000;0.800000;0.800000;1.000000;;
   5.000000;
   0.000000;0.000000;0.000000;;
   0.000000;0.000000;0.000000;;
  }
  Material {
   0.800000;0.800000;0.800000;1.000000;;
   5.000000;
   0.000000;0.000000;0.000000;;
   0.000000;0.000000;0.000000;;
  }
  Material {
   1.000000;1.000000;1.000000;1.000000;;
   0.000000;
   0.000000;0.000000;0.000000;;
   0.000000;0.000000;0.000000;;
  }
 }
 MeshNormals {
  48;
  0.000000;0.000000;-1.000000;,
  0.694663;0.719335;0.000000;,
  0.000000;0.000000;1.000000;,
  -0.694655;-0.719343;0.000000;,
  -0.719341;0.694657;0.000000;,
  0.719342;-0.694657;-0.000000;,
  0.000000;0.000000;-1.000000;,
  0.681987;-0.731364;-0.000000;,
  0.000000;0.000000;1.000000;,
  -0.682001;0.731351;0.000000;,
  0.731353;0.682000;0.000000;,
  -0.731352;-0.682000;0.000000;,
  0.000000;0.000000;-1.000000;,
  1.000000;0.000000;0.000000;,
  0.000000;0.000000;1.000000;,
  -1.000000;0.000000;0.000000;,
  0.000000;1.000000;0.000000;,
  0.000000;-1.000000;-0.000000;,
  0.000000;0.000000;-1.000000;,
  1.000000;0.000000;0.000000;,
  0.000000;0.000000;1.000000;,
  -1.000000;0.000000;0.000000;,
  0.000000;1.000000;0.000000;,
  0.000000;-1.000000;-0.000000;,
  0.000000;0.000000;-1.000000;,
  -0.866026;-0.499999;0.000000;,
  0.000000;0.000000;1.000000;,
  0.866026;0.499999;0.000000;,
  0.500003;-0.866023;-0.000000;,
  -0.500003;0.866024;0.000000;,
  0.000000;0.000000;-1.000000;,
  -0.923879;0.382684;0.000000;,
  0.000000;0.000000;1.000000;,
  0.923879;-0.382684;-0.000000;,
  -0.382679;-0.923881;0.000000;,
  0.382683;0.923880;0.000000;,
  0.000000;0.000000;-1.000000;,
  -0.843391;0.537301;0.000000;,
  0.000000;-0.000000;1.000000;,
  0.843391;-0.537300;-0.000000;,
  -0.537296;-0.843394;0.000000;,
  0.537299;0.843392;0.000000;,
  0.000000;0.000000;-1.000000;,
  -0.866026;-0.499999;0.000000;,
  0.000000;0.000000;1.000000;,
  0.866026;0.499999;0.000000;,
  0.500003;-0.866024;-0.000000;,
  -0.500003;0.866024;0.000000;;
  48;
  4;0,0,0,0;,
  4;1,1,1,1;,
  4;2,2,2,2;,
  4;3,3,3,3;,
  4;4,4,4,4;,
  4;5,5,5,5;,
  4;6,6,6,6;,
  4;7,7,7,7;,
  4;8,8,8,8;,
  4;9,9,9,9;,
  4;10,10,10,10;,
  4;11,11,11,11;,
  4;12,12,12,12;,
  4;13,13,13,13;,
  4;14,14,14,14;,
  4;15,15,15,15;,
  4;16,16,16,16;,
  4;17,17,17,17;,
  4;18,18,18,18;,
  4;19,19,19,19;,
  4;20,20,20,20;,
  4;21,21,21,21;,
  4;22,22,22,22;,
  4;23,23,23,23;,
  4;24,24,24,24;,
  4;25,25,25,25;,
  4;26,26,26,26;,
  4;27,27,27,27;,
  4;28,28,28,28;,
  4;29,29,29,29;,
  4;30,30,30,30;,
  4;31,31,31,31;,
  4;32,32,32,32;,
  4;33,33,33,33;,
  4;34,34,34,34;,
  4;35,35,35,35;,
  4;36,36,36,36;,
  4;37,37,37,37;,
  4;38,38,38,38;,
  4;39,39,39,39;,
  4;40,40,40,40;,
  4;41,41,41,41;,
  4;42,42,42,42;,
  4;43,43,43,43;,
  4;44,44,44,44;,
  4;45,45,45,45;,
  4;46,46,46,46;,
  4;47,47,47,47;;
 }
 MeshTextureCoords {
  160;
  0.000000;0.000000;,
  1.000000;0.000000;,
  1.000000;1.000000;,
  0.000000;1.000000;,
  0.000000;0.000000;,
  1.000000;0.000000;,
  1.000000;1.000000;,
  0.000000;1.000000;,
  0.000000;0.000000;,
  1.000000;0.000000;,
  1.000000;1.000000;,
  0.000000;1.000000;,
  0.000000;0.000000;,
  1.000000;0.000000;,
  1.000000;1.000000;,
  0.000000;1.000000;,
  1.000000;1.000000;,
  0.000000;1.000000;,
  0.000000;0.000000;,
  1.000000;0.000000;,
  0.000000;0.000000;,
  1.000000;0.000000;,
  1.000000;1.000000;,
  0.000000;1.000000;,
  0.000000;0.000000;,
  1.000000;0.000000;,
  1.000000;1.000000;,
  0.000000;1.000000;,
  0.000000;0.000000;,
  1.000000;0.000000;,
  1.000000;1.000000;,
  0.000000;1.000000;,
  0.000000;0.000000;,
  1.000000;0.000000;,
  1.000000;1.000000;,
  0.000000;1.000000;,
  1.000000;1.000000;,
  0.000000;1.000000;,
  0.000000;0.000000;,
  1.000000;0.000000;,
  0.000000;0.000000;,
  1.000000;0.000000;,
  1.000000;1.000000;,
  0.000000;1.000000;,
  0.000000;0.000000;,
  1.000000;0.000000;,
  1.000000;1.000000;,
  0.000000;1.000000;,
  0.000000;0.000000;,
  1.000000;0.000000;,
  1.000000;1.000000;,
  0.000000;1.000000;,
  0.000000;0.000000;,
  1.000000;0.000000;,
  1.000000;1.000000;,
  0.000000;1.000000;,
  1.000000;1.000000;,
  0.000000;1.000000;,
  0.000000;0.000000;,
  1.000000;0.000000;,
  0.000000;0.000000;,
  1.000000;0.000000;,
  1.000000;1.000000;,
  0.000000;1.000000;,
  0.000000;0.000000;,
  1.000000;0.000000;,
  1.000000;1.000000;,
  0.000000;1.000000;,
  0.000000;0.000000;,
  1.000000;0.000000;,
  1.000000;1.000000;,
  0.000000;1.000000;,
  0.000000;0.000000;,
  1.000000;0.000000;,
  1.000000;1.000000;,
  0.000000;1.000000;,
  1.000000;1.000000;,
  0.000000;1.000000;,
  0.000000;0.000000;,
  1.000000;0.000000;,
  0.000000;0.000000;,
  1.000000;0.000000;,
  1.000000;1.000000;,
  0.000000;1.000000;,
  0.000000;0.000000;,
  1.000000;0.000000;,
  1.000000;1.000000;,
  0.000000;1.000000;,
  0.000000;0.000000;,
  1.000000;0.000000;,
  1.000000;1.000000;,
  0.000000;1.000000;,
  0.000000;0.000000;,
  1.000000;0.000000;,
  1.000000;1.000000;,
  0.000000;1.000000;,
  1.000000;1.000000;,
  0.000000;1.000000;,
  0.000000;0.000000;,
  1.000000;0.000000;,
  0.000000;0.000000;,
  1.000000;0.000000;,
  1.000000;1.000000;,
  0.000000;1.000000;,
  0.000000;0.000000;,
  1.000000;0.000000;,
  1.000000;1.000000;,
  0.000000;1.000000;,
  0.000000;0.000000;,
  1.000000;0.000000;,
  1.000000;1.000000;,
  0.000000;1.000000;,
  0.000000;0.000000;,
  1.000000;0.000000;,
  1.000000;1.000000;,
  0.000000;1.000000;,
  1.000000;1.000000;,
  0.000000;1.000000;,
  0.000000;0.000000;,
  1.000000;0.000000;,
  0.000000;0.000000;,
  1.000000;0.000000;,
  1.000000;1.000000;,
  0.000000;1.000000;,
  0.000000;0.000000;,
  1.000000;0.000000;,
  1.000000;1.000000;,
  0.000000;1.000000;,
  0.000000;0.000000;,
  1.000000;0.000000;,
  1.000000;1.000000;,
  0.000000;1.000000;,
  0.000000;0.000000;,
  1.000000;0.000000;,
  1.000000;1.000000;,
  0.000000;1.000000;,
  1.000000;1.000000;,
  0.000000;1.000000;,
  0.000000;0.000000;,
  1.000000;0.000000;,
  0.000000;0.000000;,
  1.000000;0.000000;,
  1.000000;1.000000;,
  0.000000;1.000000;,
  0.000000;0.000000;,
  1.000000;0.000000;,
  1.000000;1.000000;,
  0.000000;1.000000;,
  0.000000;0.000000;,
  1.000000;0.000000;,
  1.000000;1.000000;,
  0.000000;1.000000;,
  0.000000;0.000000;,
  1.000000;0.000000;,
  1.000000;1.000000;,
  0.000000;1.000000;,
  1.000000;1.000000;,
  0.000000;1.000000;,
  0.000000;0.000000;,
  1.000000;0.000000;;
 }
}
