xof 0302txt 0064
template Header {
 <3D82AB43-62DA-11cf-AB39-0020AF71E433>
 WORD major;
 WORD minor;
 DWORD flags;
}

template Vector {
 <3D82AB5E-62DA-11cf-AB39-0020AF71E433>
 FLOAT x;
 FLOAT y;
 FLOAT z;
}

template Coords2d {
 <F6F23F44-7686-11cf-8F52-0040333594A3>
 FLOAT u;
 FLOAT v;
}

template Matrix4x4 {
 <F6F23F45-7686-11cf-8F52-0040333594A3>
 array FLOAT matrix[16];
}

template ColorRGBA {
 <35FF44E0-6C7C-11cf-8F52-0040333594A3>
 FLOAT red;
 FLOAT green;
 FLOAT blue;
 FLOAT alpha;
}

template ColorRGB {
 <D3E16E81-7835-11cf-8F52-0040333594A3>
 FLOAT red;
 FLOAT green;
 FLOAT blue;
}

template IndexedColor {
 <1630B820-7842-11cf-8F52-0040333594A3>
 DWORD index;
 ColorRGBA indexColor;
}

template Boolean {
 <4885AE61-78E8-11cf-8F52-0040333594A3>
 WORD truefalse;
}

template Boolean2d {
 <4885AE63-78E8-11cf-8F52-0040333594A3>
 Boolean u;
 Boolean v;
}

template MaterialWrap {
 <4885AE60-78E8-11cf-8F52-0040333594A3>
 Boolean u;
 Boolean v;
}

template TextureFilename {
 <A42790E1-7810-11cf-8F52-0040333594A3>
 STRING filename;
}

template Material {
 <3D82AB4D-62DA-11cf-AB39-0020AF71E433>
 ColorRGBA faceColor;
 FLOAT power;
 ColorRGB specularColor;
 ColorRGB emissiveColor;
 [...]
}

template MeshFace {
 <3D82AB5F-62DA-11cf-AB39-0020AF71E433>
 DWORD nFaceVertexIndices;
 array DWORD faceVertexIndices[nFaceVertexIndices];
}

template MeshFaceWraps {
 <4885AE62-78E8-11cf-8F52-0040333594A3>
 DWORD nFaceWrapValues;
 Boolean2d faceWrapValues;
}

template MeshTextureCoords {
 <F6F23F40-7686-11cf-8F52-0040333594A3>
 DWORD nTextureCoords;
 array Coords2d textureCoords[nTextureCoords];
}

template MeshMaterialList {
 <F6F23F42-7686-11cf-8F52-0040333594A3>
 DWORD nMaterials;
 DWORD nFaceIndexes;
 array DWORD faceIndexes[nFaceIndexes];
 [Material]
}

template MeshNormals {
 <F6F23F43-7686-11cf-8F52-0040333594A3>
 DWORD nNormals;
 array Vector normals[nNormals];
 DWORD nFaceNormals;
 array MeshFace faceNormals[nFaceNormals];
}

template MeshVertexColors {
 <1630B821-7842-11cf-8F52-0040333594A3>
 DWORD nVertexColors;
 array IndexedColor vertexColors[nVertexColors];
}

template Mesh {
 <3D82AB44-62DA-11cf-AB39-0020AF71E433>
 DWORD nVertices;
 array Vector vertices[nVertices];
 DWORD nFaces;
 array MeshFace faces[nFaces];
 [...]
}

Header{
1;
0;
1;
}

Mesh {
 616;
 -6.00386;10.78586;-4.82786;,
 3.65186;10.78586;-4.82786;,
 3.65186;1.13014;-4.82786;,
 -6.00386;1.13014;-4.82786;,
 3.65186;10.78586;-4.82786;,
 3.65186;10.78586;4.82786;,
 3.65186;1.13014;4.82786;,
 3.65186;1.13014;-4.82786;,
 3.65186;10.78586;4.82786;,
 -6.00386;10.78586;4.82786;,
 -6.00386;1.13014;4.82786;,
 3.65186;1.13014;4.82786;,
 -6.00386;10.78586;4.82786;,
 -6.00386;10.78586;-4.82786;,
 -6.00386;1.13014;-4.82786;,
 -6.00386;1.13014;4.82786;,
 3.65186;10.78586;-4.82786;,
 -6.00386;10.78586;-4.82786;,
 -6.00386;1.13014;-4.82786;,
 3.65186;1.13014;-4.82786;,
 -7.01132;8.60341;-5.83533;,
 4.65932;8.60341;-5.83533;,
 4.65932;5.49106;-5.83533;,
 -7.01132;5.49106;-5.83533;,
 4.65932;8.60341;-5.83533;,
 4.65932;8.60341;5.83533;,
 4.65932;5.49106;5.83533;,
 4.65932;5.49106;-5.83533;,
 4.65932;8.60341;5.83533;,
 -7.01132;8.60341;5.83533;,
 -7.01132;5.49106;5.83533;,
 4.65932;5.49106;5.83533;,
 -7.01132;8.60341;5.83533;,
 -7.01132;8.60341;-5.83533;,
 -7.01132;5.49106;-5.83533;,
 -7.01132;5.49106;5.83533;,
 4.65932;8.60341;-5.83533;,
 -7.01132;8.60341;-5.83533;,
 -7.01132;5.49106;-5.83533;,
 4.65932;5.49106;-5.83533;,
 -1.48367;3.63362;-4.94977;,
 -0.86833;3.63362;-4.94977;,
 -0.86833;1.03280;-4.94977;,
 -1.48367;1.03280;-4.94977;,
 -0.86833;3.63362;-4.94977;,
 -0.86833;3.63362;4.94977;,
 -0.86833;1.03280;4.94977;,
 -0.86833;1.03280;-4.94977;,
 -0.86833;3.63362;4.94977;,
 -1.48367;3.63362;4.94977;,
 -1.48367;1.03280;4.94977;,
 -0.86833;1.03280;4.94977;,
 -1.48367;3.63362;4.94977;,
 -1.48367;3.63362;-4.94977;,
 -1.48367;1.03280;-4.94977;,
 -1.48367;1.03280;4.94977;,
 -0.86833;3.63362;-4.94977;,
 -1.48367;3.63362;-4.94977;,
 -1.48367;1.03280;-4.94977;,
 -0.86833;1.03280;-4.94977;,
 -1.58077;4.30146;-4.86127;,
 -1.39950;4.25047;-4.89820;,
 -1.58077;4.25047;-4.91349;,
 -1.58077;4.30146;-4.86127;,
 -1.32442;4.25047;-4.86127;,
 -1.58077;4.30146;-4.86127;,
 -1.39950;4.25047;-4.82434;,
 -1.58077;4.30146;-4.86127;,
 -1.58077;4.25047;-4.80905;,
 -1.58077;4.30146;-4.86127;,
 -1.76204;4.25047;-4.82434;,
 -1.58077;4.30146;-4.86127;,
 -1.83712;4.25047;-4.86127;,
 -1.58077;4.30146;-4.86127;,
 -1.76204;4.25047;-4.89820;,
 -1.58077;4.30146;-4.86127;,
 -1.58077;4.25047;-4.91349;,
 -1.24583;4.10526;-4.92950;,
 -1.58077;4.10526;-4.95776;,
 -1.10710;4.10526;-4.86127;,
 -1.24583;4.10526;-4.79304;,
 -1.58077;4.10526;-4.76478;,
 -1.91571;4.10526;-4.79304;,
 -2.05444;4.10526;-4.86127;,
 -1.91571;4.10526;-4.92950;,
 -1.58077;4.10526;-4.95776;,
 -1.14315;3.88794;-4.95042;,
 -1.58077;3.88794;-4.98735;,
 -0.96188;3.88794;-4.86127;,
 -1.14315;3.88794;-4.77212;,
 -1.58077;3.88794;-4.73519;,
 -2.01839;3.88794;-4.77212;,
 -2.19966;3.88794;-4.86127;,
 -2.01839;3.88794;-4.95042;,
 -1.58077;3.88794;-4.98735;,
 -1.10710;3.63159;-4.95776;,
 -1.58077;3.63159;-4.99773;,
 -0.91089;3.63159;-4.86127;,
 -1.10710;3.63159;-4.76478;,
 -1.58077;3.63159;-4.72481;,
 -2.05444;3.63159;-4.76478;,
 -2.25065;3.63159;-4.86127;,
 -2.05444;3.63159;-4.95776;,
 -1.58077;3.63159;-4.99773;,
 -1.14315;3.37524;-4.95042;,
 -1.58077;3.37524;-4.98735;,
 -0.96188;3.37524;-4.86127;,
 -1.14315;3.37524;-4.77212;,
 -1.58077;3.37524;-4.73519;,
 -2.01839;3.37524;-4.77212;,
 -2.19966;3.37524;-4.86127;,
 -2.01839;3.37524;-4.95042;,
 -1.58077;3.37524;-4.98735;,
 -1.24583;3.15791;-4.92950;,
 -1.58077;3.15791;-4.95776;,
 -1.10710;3.15791;-4.86127;,
 -1.24583;3.15791;-4.79304;,
 -1.58077;3.15791;-4.76478;,
 -1.91571;3.15791;-4.79304;,
 -2.05444;3.15791;-4.86127;,
 -1.91571;3.15791;-4.92950;,
 -1.58077;3.15791;-4.95776;,
 -1.39950;3.01270;-4.89820;,
 -1.58077;3.01270;-4.91349;,
 -1.32442;3.01270;-4.86127;,
 -1.39950;3.01270;-4.82434;,
 -1.58077;3.01270;-4.80905;,
 -1.76204;3.01270;-4.82434;,
 -1.83712;3.01270;-4.86127;,
 -1.76204;3.01270;-4.89820;,
 -1.58077;3.01270;-4.91349;,
 -1.58077;2.96171;-4.86127;,
 -1.58077;2.96171;-4.86127;,
 -1.58077;2.96171;-4.86127;,
 -1.58077;2.96171;-4.86127;,
 -1.58077;2.96171;-4.86127;,
 -1.58077;2.96171;-4.86127;,
 -1.58077;2.96171;-4.86127;,
 -1.58077;2.96171;-4.86127;,
 -0.65388;4.30146;-4.86127;,
 -0.47261;4.25047;-4.89820;,
 -0.65388;4.25047;-4.91349;,
 -0.65388;4.30146;-4.86127;,
 -0.39752;4.25047;-4.86127;,
 -0.65388;4.30146;-4.86127;,
 -0.47261;4.25047;-4.82434;,
 -0.65388;4.30146;-4.86127;,
 -0.65388;4.25047;-4.80905;,
 -0.65388;4.30146;-4.86127;,
 -0.83514;4.25047;-4.82434;,
 -0.65388;4.30146;-4.86127;,
 -0.91022;4.25047;-4.86127;,
 -0.65388;4.30146;-4.86127;,
 -0.83514;4.25047;-4.89820;,
 -0.65388;4.30146;-4.86127;,
 -0.65388;4.25047;-4.91349;,
 -0.31894;4.10526;-4.92950;,
 -0.65388;4.10526;-4.95776;,
 -0.18020;4.10526;-4.86127;,
 -0.31894;4.10526;-4.79304;,
 -0.65388;4.10526;-4.76478;,
 -0.98881;4.10526;-4.79304;,
 -1.12755;4.10526;-4.86127;,
 -0.98881;4.10526;-4.92950;,
 -0.65388;4.10526;-4.95776;,
 -0.21626;3.88794;-4.95042;,
 -0.65388;3.88794;-4.98735;,
 -0.03499;3.88794;-4.86127;,
 -0.21626;3.88794;-4.77212;,
 -0.65388;3.88794;-4.73519;,
 -1.09149;3.88794;-4.77212;,
 -1.27276;3.88794;-4.86127;,
 -1.09149;3.88794;-4.95042;,
 -0.65388;3.88794;-4.98735;,
 -0.18020;3.63159;-4.95776;,
 -0.65388;3.63159;-4.99773;,
 0.01600;3.63159;-4.86127;,
 -0.18020;3.63159;-4.76478;,
 -0.65388;3.63159;-4.72481;,
 -1.12755;3.63159;-4.76478;,
 -1.32375;3.63159;-4.86127;,
 -1.12755;3.63159;-4.95776;,
 -0.65388;3.63159;-4.99773;,
 -0.21626;3.37524;-4.95042;,
 -0.65388;3.37524;-4.98735;,
 -0.03499;3.37524;-4.86127;,
 -0.21626;3.37524;-4.77212;,
 -0.65388;3.37524;-4.73519;,
 -1.09149;3.37524;-4.77212;,
 -1.27276;3.37524;-4.86127;,
 -1.09149;3.37524;-4.95042;,
 -0.65388;3.37524;-4.98735;,
 -0.31894;3.15791;-4.92950;,
 -0.65388;3.15791;-4.95776;,
 -0.18020;3.15791;-4.86127;,
 -0.31894;3.15791;-4.79304;,
 -0.65388;3.15791;-4.76478;,
 -0.98881;3.15791;-4.79304;,
 -1.12755;3.15791;-4.86127;,
 -0.98881;3.15791;-4.92950;,
 -0.65388;3.15791;-4.95776;,
 -0.47261;3.01270;-4.89820;,
 -0.65388;3.01270;-4.91349;,
 -0.39752;3.01270;-4.86127;,
 -0.47261;3.01270;-4.82434;,
 -0.65388;3.01270;-4.80905;,
 -0.83514;3.01270;-4.82434;,
 -0.91022;3.01270;-4.86127;,
 -0.83514;3.01270;-4.89820;,
 -0.65388;3.01270;-4.91349;,
 -0.65388;2.96171;-4.86127;,
 -0.65388;2.96171;-4.86127;,
 -0.65388;2.96171;-4.86127;,
 -0.65388;2.96171;-4.86127;,
 -0.65388;2.96171;-4.86127;,
 -0.65388;2.96171;-4.86127;,
 -0.65388;2.96171;-4.86127;,
 -0.65388;2.96171;-4.86127;,
 -1.58077;4.30146;4.89185;,
 -1.39950;4.25047;4.85492;,
 -1.58077;4.25047;4.83963;,
 -1.58077;4.30146;4.89185;,
 -1.32442;4.25047;4.89185;,
 -1.58077;4.30146;4.89185;,
 -1.39950;4.25047;4.92878;,
 -1.58077;4.30146;4.89185;,
 -1.58077;4.25047;4.94407;,
 -1.58077;4.30146;4.89185;,
 -1.76204;4.25047;4.92878;,
 -1.58077;4.30146;4.89185;,
 -1.83712;4.25047;4.89185;,
 -1.58077;4.30146;4.89185;,
 -1.76204;4.25047;4.85492;,
 -1.58077;4.30146;4.89185;,
 -1.58077;4.25047;4.83963;,
 -1.24583;4.10526;4.82362;,
 -1.58077;4.10526;4.79535;,
 -1.10710;4.10526;4.89185;,
 -1.24583;4.10526;4.96008;,
 -1.58077;4.10526;4.98834;,
 -1.91571;4.10526;4.96008;,
 -2.05444;4.10526;4.89185;,
 -1.91571;4.10526;4.82362;,
 -1.58077;4.10526;4.79535;,
 -1.14315;3.88794;4.80270;,
 -1.58077;3.88794;4.76577;,
 -0.96188;3.88794;4.89185;,
 -1.14315;3.88794;4.98100;,
 -1.58077;3.88794;5.01793;,
 -2.01839;3.88794;4.98100;,
 -2.19966;3.88794;4.89185;,
 -2.01839;3.88794;4.80270;,
 -1.58077;3.88794;4.76577;,
 -1.10710;3.63159;4.79535;,
 -1.58077;3.63159;4.75539;,
 -0.91089;3.63159;4.89185;,
 -1.10710;3.63159;4.98834;,
 -1.58077;3.63159;5.02831;,
 -2.05444;3.63159;4.98834;,
 -2.25065;3.63159;4.89185;,
 -2.05444;3.63159;4.79535;,
 -1.58077;3.63159;4.75539;,
 -1.14315;3.37524;4.80270;,
 -1.58077;3.37524;4.76577;,
 -0.96188;3.37524;4.89185;,
 -1.14315;3.37524;4.98100;,
 -1.58077;3.37524;5.01793;,
 -2.01839;3.37524;4.98100;,
 -2.19966;3.37524;4.89185;,
 -2.01839;3.37524;4.80270;,
 -1.58077;3.37524;4.76577;,
 -1.24583;3.15791;4.82362;,
 -1.58077;3.15791;4.79535;,
 -1.10710;3.15791;4.89185;,
 -1.24583;3.15791;4.96008;,
 -1.58077;3.15791;4.98834;,
 -1.91571;3.15791;4.96008;,
 -2.05444;3.15791;4.89185;,
 -1.91571;3.15791;4.82362;,
 -1.58077;3.15791;4.79535;,
 -1.39950;3.01270;4.85492;,
 -1.58077;3.01270;4.83963;,
 -1.32442;3.01270;4.89185;,
 -1.39950;3.01270;4.92878;,
 -1.58077;3.01270;4.94407;,
 -1.76204;3.01270;4.92878;,
 -1.83712;3.01270;4.89185;,
 -1.76204;3.01270;4.85492;,
 -1.58077;3.01270;4.83963;,
 -1.58077;2.96171;4.89185;,
 -1.58077;2.96171;4.89185;,
 -1.58077;2.96171;4.89185;,
 -1.58077;2.96171;4.89185;,
 -1.58077;2.96171;4.89185;,
 -1.58077;2.96171;4.89185;,
 -1.58077;2.96171;4.89185;,
 -1.58077;2.96171;4.89185;,
 -0.81126;4.30146;4.89185;,
 -0.62999;4.25047;4.85492;,
 -0.81126;4.25047;4.83963;,
 -0.81126;4.30146;4.89185;,
 -0.55491;4.25047;4.89185;,
 -0.81126;4.30146;4.89185;,
 -0.62999;4.25047;4.92878;,
 -0.81126;4.30146;4.89185;,
 -0.81126;4.25047;4.94407;,
 -0.81126;4.30146;4.89185;,
 -0.99253;4.25047;4.92878;,
 -0.81126;4.30146;4.89185;,
 -1.06761;4.25047;4.89185;,
 -0.81126;4.30146;4.89185;,
 -0.99253;4.25047;4.85492;,
 -0.81126;4.30146;4.89185;,
 -0.81126;4.25047;4.83963;,
 -0.47632;4.10526;4.82362;,
 -0.81126;4.10526;4.79535;,
 -0.33759;4.10526;4.89185;,
 -0.47632;4.10526;4.96008;,
 -0.81126;4.10526;4.98834;,
 -1.14620;4.10526;4.96008;,
 -1.28494;4.10526;4.89185;,
 -1.14620;4.10526;4.82362;,
 -0.81126;4.10526;4.79535;,
 -0.37364;3.88794;4.80270;,
 -0.81126;3.88794;4.76577;,
 -0.19238;3.88794;4.89185;,
 -0.37364;3.88794;4.98100;,
 -0.81126;3.88794;5.01793;,
 -1.24888;3.88794;4.98100;,
 -1.43015;3.88794;4.89185;,
 -1.24888;3.88794;4.80270;,
 -0.81126;3.88794;4.76577;,
 -0.33759;3.63159;4.79535;,
 -0.81126;3.63159;4.75539;,
 -0.14138;3.63159;4.89185;,
 -0.33759;3.63159;4.98834;,
 -0.81126;3.63159;5.02831;,
 -1.28494;3.63159;4.98834;,
 -1.48114;3.63159;4.89185;,
 -1.28494;3.63159;4.79535;,
 -0.81126;3.63159;4.75539;,
 -0.37364;3.37524;4.80270;,
 -0.81126;3.37524;4.76577;,
 -0.19238;3.37524;4.89185;,
 -0.37364;3.37524;4.98100;,
 -0.81126;3.37524;5.01793;,
 -1.24888;3.37524;4.98100;,
 -1.43015;3.37524;4.89185;,
 -1.24888;3.37524;4.80270;,
 -0.81126;3.37524;4.76577;,
 -0.47632;3.15791;4.82362;,
 -0.81126;3.15791;4.79535;,
 -0.33759;3.15791;4.89185;,
 -0.47632;3.15791;4.96008;,
 -0.81126;3.15791;4.98834;,
 -1.14620;3.15791;4.96008;,
 -1.28494;3.15791;4.89185;,
 -1.14620;3.15791;4.82362;,
 -0.81126;3.15791;4.79535;,
 -0.62999;3.01270;4.85492;,
 -0.81126;3.01270;4.83963;,
 -0.55491;3.01270;4.89185;,
 -0.62999;3.01270;4.92878;,
 -0.81126;3.01270;4.94407;,
 -0.99253;3.01270;4.92878;,
 -1.06761;3.01270;4.89185;,
 -0.99253;3.01270;4.85492;,
 -0.81126;3.01270;4.83963;,
 -0.81126;2.96171;4.89185;,
 -0.81126;2.96171;4.89185;,
 -0.81126;2.96171;4.89185;,
 -0.81126;2.96171;4.89185;,
 -0.81126;2.96171;4.89185;,
 -0.81126;2.96171;4.89185;,
 -0.81126;2.96171;4.89185;,
 -0.81126;2.96171;4.89185;,
 -2.29569;12.98228;-1.46577;,
 -0.05631;12.98228;-1.46577;,
 -0.05631;10.74290;-1.46577;,
 -2.29569;10.74290;-1.46577;,
 -0.05631;12.98228;-1.46577;,
 -0.05631;12.98228;1.46577;,
 -0.05631;10.74290;1.46577;,
 -0.05631;10.74290;-1.46577;,
 -0.05631;12.98228;1.46577;,
 -2.29569;12.98228;1.46577;,
 -2.29569;10.74290;1.46577;,
 -0.05631;10.74290;1.46577;,
 -2.29569;12.98228;1.46577;,
 -2.29569;12.98228;-1.46577;,
 -2.29569;10.74290;-1.46577;,
 -2.29569;10.74290;1.46577;,
 -0.05631;12.98228;-1.46577;,
 -2.29569;12.98228;-1.46577;,
 -2.29569;10.74290;-1.46577;,
 -0.05631;10.74290;-1.46577;,
 -6.82234;12.98228;-1.46577;,
 -4.58295;12.98228;-1.46577;,
 -4.58295;10.74290;-1.46577;,
 -6.82234;10.74290;-1.46577;,
 -4.58295;12.98228;-1.46577;,
 -4.58295;12.98228;1.46577;,
 -4.58295;10.74290;1.46577;,
 -4.58295;10.74290;-1.46577;,
 -4.58295;12.98228;1.46577;,
 -6.82234;12.98228;1.46577;,
 -6.82234;10.74290;1.46577;,
 -4.58295;10.74290;1.46577;,
 -6.82234;12.98228;1.46577;,
 -6.82234;12.98228;-1.46577;,
 -6.82234;10.74290;-1.46577;,
 -6.82234;10.74290;1.46577;,
 -4.58295;12.98228;-1.46577;,
 -6.82234;12.98228;-1.46577;,
 -6.82234;10.74290;-1.46577;,
 -4.58295;10.74290;-1.46577;,
 -6.82234;17.88607;-1.46577;,
 -4.58295;17.88607;-1.46577;,
 -4.58295;15.64669;-1.46577;,
 -6.82234;15.64669;-1.46577;,
 -4.58295;17.88607;-1.46577;,
 -4.58295;17.88607;1.46577;,
 -4.58295;15.64669;1.46577;,
 -4.58295;15.64669;-1.46577;,
 -4.58295;17.88607;1.46577;,
 -6.82234;17.88607;1.46577;,
 -6.82234;15.64669;1.46577;,
 -4.58295;15.64669;1.46577;,
 -6.82234;17.88607;1.46577;,
 -6.82234;17.88607;-1.46577;,
 -6.82234;15.64669;-1.46577;,
 -6.82234;15.64669;1.46577;,
 -4.58295;17.88607;-1.46577;,
 -6.82234;17.88607;-1.46577;,
 -6.82234;15.64669;-1.46577;,
 -4.58295;15.64669;-1.46577;,
 2.61487;12.98228;-1.46577;,
 4.85426;12.98228;-1.46577;,
 4.85426;10.74290;-1.46577;,
 2.61487;10.74290;-1.46577;,
 4.85426;12.98228;-1.46577;,
 4.85426;12.98228;1.46577;,
 4.85426;10.74290;1.46577;,
 4.85426;10.74290;-1.46577;,
 4.85426;12.98228;1.46577;,
 2.61487;12.98228;1.46577;,
 2.61487;10.74290;1.46577;,
 4.85426;10.74290;1.46577;,
 2.61487;12.98228;1.46577;,
 2.61487;12.98228;-1.46577;,
 2.61487;10.74290;-1.46577;,
 2.61487;10.74290;1.46577;,
 4.85426;12.98228;-1.46577;,
 2.61487;12.98228;-1.46577;,
 2.61487;10.74290;-1.46577;,
 4.85426;10.74290;-1.46577;,
 2.63426;17.68464;-1.46577;,
 4.87365;17.68464;-1.46577;,
 4.87365;15.44525;-1.46577;,
 2.63426;15.44525;-1.46577;,
 4.87365;17.68464;-1.46577;,
 4.87365;17.68464;1.46577;,
 4.87365;15.44525;1.46577;,
 4.87365;15.44525;-1.46577;,
 4.87365;17.68464;1.46577;,
 2.63426;17.68464;1.46577;,
 2.63426;15.44525;1.46577;,
 4.87365;15.44525;1.46577;,
 2.63426;17.68464;1.46577;,
 2.63426;17.68464;-1.46577;,
 2.63426;15.44525;-1.46577;,
 2.63426;15.44525;1.46577;,
 4.87365;17.68464;-1.46577;,
 2.63426;17.68464;-1.46577;,
 2.63426;15.44525;-1.46577;,
 4.87365;15.44525;-1.46577;,
 -6.82234;12.98228;-1.46577;,
 -4.58295;12.98228;-1.46577;,
 -4.58295;10.74290;-1.46577;,
 -6.82234;10.74290;-1.46577;,
 -4.58295;12.98228;-1.46577;,
 -4.58295;12.98228;1.46577;,
 -4.58295;10.74290;1.46577;,
 -4.58295;10.74290;-1.46577;,
 -4.58295;12.98228;1.46577;,
 -6.82234;12.98228;1.46577;,
 -6.82234;10.74290;1.46577;,
 -4.58295;10.74290;1.46577;,
 -6.82234;12.98228;1.46577;,
 -6.82234;12.98228;-1.46577;,
 -6.82234;10.74290;-1.46577;,
 -6.82234;10.74290;1.46577;,
 -4.58295;12.98228;-1.46577;,
 -6.82234;12.98228;-1.46577;,
 -6.82234;10.74290;-1.46577;,
 -4.58295;10.74290;-1.46577;,
 -2.03033;12.76163;-1.10858;,
 4.48093;12.76163;-1.10858;,
 4.48093;10.97245;-1.10858;,
 -2.03033;10.97245;-1.10858;,
 4.48093;12.76163;-1.10858;,
 4.48093;12.76163;1.10858;,
 4.48093;10.97245;1.10858;,
 4.48093;10.97245;-1.10858;,
 4.48093;12.76163;1.10858;,
 -2.03033;12.76163;1.10858;,
 -2.03033;10.97245;1.10858;,
 4.48093;10.97245;1.10858;,
 -2.03033;12.76163;1.10858;,
 -2.03033;12.76163;-1.10858;,
 -2.03033;10.97245;-1.10858;,
 -2.03033;10.97245;1.10858;,
 4.48093;12.76163;-1.10858;,
 -2.03033;12.76163;-1.10858;,
 -2.03033;10.97245;-1.10858;,
 4.48093;10.97245;-1.10858;,
 -5.10714;12.76163;-1.10858;,
 1.40412;12.76163;-1.10858;,
 1.40412;10.97245;-1.10858;,
 -5.10714;10.97245;-1.10858;,
 1.40412;12.76163;-1.10858;,
 1.40412;12.76163;1.10858;,
 1.40412;10.97245;1.10858;,
 1.40412;10.97245;-1.10858;,
 1.40412;12.76163;1.10858;,
 -5.10714;12.76163;1.10858;,
 -5.10714;10.97245;1.10858;,
 1.40412;10.97245;1.10858;,
 -5.10714;12.76163;1.10858;,
 -5.10714;12.76163;-1.10858;,
 -5.10714;10.97245;-1.10858;,
 -5.10714;10.97245;1.10858;,
 1.40412;12.76163;-1.10858;,
 -5.10714;12.76163;-1.10858;,
 -5.10714;10.97245;-1.10858;,
 1.40412;10.97245;-1.10858;,
 2.64882;15.73142;-1.10858;,
 4.60606;15.73142;-1.10858;,
 4.60606;12.45991;-1.10858;,
 2.64882;12.45991;-1.10858;,
 4.60606;15.73142;-1.10858;,
 4.60606;15.73142;1.10858;,
 4.60606;12.45991;1.10858;,
 4.60606;12.45991;-1.10858;,
 4.60606;15.73142;1.10858;,
 2.64882;15.73142;1.10858;,
 2.64882;12.45991;1.10858;,
 4.60606;12.45991;1.10858;,
 2.64882;15.73142;1.10858;,
 2.64882;15.73142;-1.10858;,
 2.64882;12.45991;-1.10858;,
 2.64882;12.45991;1.10858;,
 4.60606;15.73142;-1.10858;,
 2.64882;15.73142;-1.10858;,
 2.64882;12.45991;-1.10858;,
 4.60606;12.45991;-1.10858;,
 -6.56639;15.73142;-1.10858;,
 -4.60914;15.73142;-1.10858;,
 -4.60914;12.45991;-1.10858;,
 -6.56639;12.45991;-1.10858;,
 -4.60914;15.73142;-1.10858;,
 -4.60914;15.73142;1.10858;,
 -4.60914;12.45991;1.10858;,
 -4.60914;12.45991;-1.10858;,
 -4.60914;15.73142;1.10858;,
 -6.56639;15.73142;1.10858;,
 -6.56639;12.45991;1.10858;,
 -4.60914;12.45991;1.10858;,
 -6.56639;15.73142;1.10858;,
 -6.56639;15.73142;-1.10858;,
 -6.56639;12.45991;-1.10858;,
 -6.56639;12.45991;1.10858;,
 -4.60914;15.73142;-1.10858;,
 -6.56639;15.73142;-1.10858;,
 -6.56639;12.45991;-1.10858;,
 -4.60914;12.45991;-1.10858;,
 2.48521;17.17153;-1.10858;,
 3.86919;15.78755;-1.10858;,
 -0.89855;11.01980;-1.10858;,
 -2.28253;12.40378;-1.10858;,
 3.86919;15.78755;-1.10858;,
 3.86919;15.78755;1.10858;,
 -0.89855;11.01980;1.10858;,
 -0.89855;11.01980;-1.10858;,
 3.86919;15.78755;1.10858;,
 2.48521;17.17153;1.10858;,
 -2.28253;12.40378;1.10858;,
 -0.89855;11.01980;1.10858;,
 2.48521;17.17153;1.10858;,
 2.48521;17.17153;-1.10858;,
 -2.28253;12.40378;-1.10858;,
 -2.28253;12.40378;1.10858;,
 3.86919;15.78755;-1.10858;,
 2.48521;17.17153;-1.10858;,
 -2.28253;12.40378;-1.10858;,
 -0.89855;11.01980;-1.10858;,
 0.21147;12.40378;-1.10858;,
 -1.17251;11.01980;-1.10858;,
 -5.94025;15.78755;-1.10858;,
 -4.55627;17.17153;-1.10858;,
 -1.17251;11.01980;-1.10858;,
 -1.17251;11.01980;1.10858;,
 -5.94025;15.78755;1.10858;,
 -5.94025;15.78755;-1.10858;,
 -1.17251;11.01980;1.10858;,
 0.21147;12.40378;1.10858;,
 -4.55627;17.17153;1.10858;,
 -5.94025;15.78755;1.10858;,
 0.21147;12.40378;1.10858;,
 0.21147;12.40378;-1.10858;,
 -4.55627;17.17153;-1.10858;,
 -4.55627;17.17153;1.10858;,
 -1.17251;11.01980;-1.10858;,
 0.21147;12.40378;-1.10858;,
 -4.55627;17.17153;-1.10858;,
 -5.94025;15.78755;-1.10858;;
 
 358;
 4;0,1,2,3;,
 4;4,5,6,7;,
 4;8,9,10,11;,
 4;12,13,14,15;,
 4;12,5,16,17;,
 4;18,19,6,15;,
 4;3,2,1,0;,
 4;7,6,5,4;,
 4;11,10,9,8;,
 4;15,14,13,12;,
 4;17,16,5,12;,
 4;15,6,19,18;,
 4;20,21,22,23;,
 4;24,25,26,27;,
 4;28,29,30,31;,
 4;32,33,34,35;,
 4;32,25,36,37;,
 4;38,39,26,35;,
 4;23,22,21,20;,
 4;27,26,25,24;,
 4;31,30,29,28;,
 4;35,34,33,32;,
 4;37,36,25,32;,
 4;35,26,39,38;,
 4;40,41,42,43;,
 4;44,45,46,47;,
 4;48,49,50,51;,
 4;52,53,54,55;,
 4;52,45,56,57;,
 4;58,59,46,55;,
 3;60,61,62;,
 3;63,64,61;,
 3;65,66,64;,
 3;67,68,66;,
 3;69,70,68;,
 3;71,72,70;,
 3;73,74,72;,
 3;75,76,74;,
 4;62,61,77,78;,
 4;61,64,79,77;,
 4;64,66,80,79;,
 4;66,68,81,80;,
 4;68,70,82,81;,
 4;70,72,83,82;,
 4;72,74,84,83;,
 4;74,76,85,84;,
 4;78,77,86,87;,
 4;77,79,88,86;,
 4;79,80,89,88;,
 4;80,81,90,89;,
 4;81,82,91,90;,
 4;82,83,92,91;,
 4;83,84,93,92;,
 4;84,85,94,93;,
 4;87,86,95,96;,
 4;86,88,97,95;,
 4;88,89,98,97;,
 4;89,90,99,98;,
 4;90,91,100,99;,
 4;91,92,101,100;,
 4;92,93,102,101;,
 4;93,94,103,102;,
 4;96,95,104,105;,
 4;95,97,106,104;,
 4;97,98,107,106;,
 4;98,99,108,107;,
 4;99,100,109,108;,
 4;100,101,110,109;,
 4;101,102,111,110;,
 4;102,103,112,111;,
 4;105,104,113,114;,
 4;104,106,115,113;,
 4;106,107,116,115;,
 4;107,108,117,116;,
 4;108,109,118,117;,
 4;109,110,119,118;,
 4;110,111,120,119;,
 4;111,112,121,120;,
 4;114,113,122,123;,
 4;113,115,124,122;,
 4;115,116,125,124;,
 4;116,117,126,125;,
 4;117,118,127,126;,
 4;118,119,128,127;,
 4;119,120,129,128;,
 4;120,121,130,129;,
 3;123,122,131;,
 3;122,124,132;,
 3;124,125,133;,
 3;125,126,134;,
 3;126,127,135;,
 3;127,128,136;,
 3;128,129,137;,
 3;129,130,138;,
 3;139,140,141;,
 3;142,143,140;,
 3;144,145,143;,
 3;146,147,145;,
 3;148,149,147;,
 3;150,151,149;,
 3;152,153,151;,
 3;154,155,153;,
 4;141,140,156,157;,
 4;140,143,158,156;,
 4;143,145,159,158;,
 4;145,147,160,159;,
 4;147,149,161,160;,
 4;149,151,162,161;,
 4;151,153,163,162;,
 4;153,155,164,163;,
 4;157,156,165,166;,
 4;156,158,167,165;,
 4;158,159,168,167;,
 4;159,160,169,168;,
 4;160,161,170,169;,
 4;161,162,171,170;,
 4;162,163,172,171;,
 4;163,164,173,172;,
 4;166,165,174,175;,
 4;165,167,176,174;,
 4;167,168,177,176;,
 4;168,169,178,177;,
 4;169,170,179,178;,
 4;170,171,180,179;,
 4;171,172,181,180;,
 4;172,173,182,181;,
 4;175,174,183,184;,
 4;174,176,185,183;,
 4;176,177,186,185;,
 4;177,178,187,186;,
 4;178,179,188,187;,
 4;179,180,189,188;,
 4;180,181,190,189;,
 4;181,182,191,190;,
 4;184,183,192,193;,
 4;183,185,194,192;,
 4;185,186,195,194;,
 4;186,187,196,195;,
 4;187,188,197,196;,
 4;188,189,198,197;,
 4;189,190,199,198;,
 4;190,191,200,199;,
 4;193,192,201,202;,
 4;192,194,203,201;,
 4;194,195,204,203;,
 4;195,196,205,204;,
 4;196,197,206,205;,
 4;197,198,207,206;,
 4;198,199,208,207;,
 4;199,200,209,208;,
 3;202,201,210;,
 3;201,203,211;,
 3;203,204,212;,
 3;204,205,213;,
 3;205,206,214;,
 3;206,207,215;,
 3;207,208,216;,
 3;208,209,217;,
 3;218,219,220;,
 3;221,222,219;,
 3;223,224,222;,
 3;225,226,224;,
 3;227,228,226;,
 3;229,230,228;,
 3;231,232,230;,
 3;233,234,232;,
 4;220,219,235,236;,
 4;219,222,237,235;,
 4;222,224,238,237;,
 4;224,226,239,238;,
 4;226,228,240,239;,
 4;228,230,241,240;,
 4;230,232,242,241;,
 4;232,234,243,242;,
 4;236,235,244,245;,
 4;235,237,246,244;,
 4;237,238,247,246;,
 4;238,239,248,247;,
 4;239,240,249,248;,
 4;240,241,250,249;,
 4;241,242,251,250;,
 4;242,243,252,251;,
 4;245,244,253,254;,
 4;244,246,255,253;,
 4;246,247,256,255;,
 4;247,248,257,256;,
 4;248,249,258,257;,
 4;249,250,259,258;,
 4;250,251,260,259;,
 4;251,252,261,260;,
 4;254,253,262,263;,
 4;253,255,264,262;,
 4;255,256,265,264;,
 4;256,257,266,265;,
 4;257,258,267,266;,
 4;258,259,268,267;,
 4;259,260,269,268;,
 4;260,261,270,269;,
 4;263,262,271,272;,
 4;262,264,273,271;,
 4;264,265,274,273;,
 4;265,266,275,274;,
 4;266,267,276,275;,
 4;267,268,277,276;,
 4;268,269,278,277;,
 4;269,270,279,278;,
 4;272,271,280,281;,
 4;271,273,282,280;,
 4;273,274,283,282;,
 4;274,275,284,283;,
 4;275,276,285,284;,
 4;276,277,286,285;,
 4;277,278,287,286;,
 4;278,279,288,287;,
 3;281,280,289;,
 3;280,282,290;,
 3;282,283,291;,
 3;283,284,292;,
 3;284,285,293;,
 3;285,286,294;,
 3;286,287,295;,
 3;287,288,296;,
 3;297,298,299;,
 3;300,301,298;,
 3;302,303,301;,
 3;304,305,303;,
 3;306,307,305;,
 3;308,309,307;,
 3;310,311,309;,
 3;312,313,311;,
 4;299,298,314,315;,
 4;298,301,316,314;,
 4;301,303,317,316;,
 4;303,305,318,317;,
 4;305,307,319,318;,
 4;307,309,320,319;,
 4;309,311,321,320;,
 4;311,313,322,321;,
 4;315,314,323,324;,
 4;314,316,325,323;,
 4;316,317,326,325;,
 4;317,318,327,326;,
 4;318,319,328,327;,
 4;319,320,329,328;,
 4;320,321,330,329;,
 4;321,322,331,330;,
 4;324,323,332,333;,
 4;323,325,334,332;,
 4;325,326,335,334;,
 4;326,327,336,335;,
 4;327,328,337,336;,
 4;328,329,338,337;,
 4;329,330,339,338;,
 4;330,331,340,339;,
 4;333,332,341,342;,
 4;332,334,343,341;,
 4;334,335,344,343;,
 4;335,336,345,344;,
 4;336,337,346,345;,
 4;337,338,347,346;,
 4;338,339,348,347;,
 4;339,340,349,348;,
 4;342,341,350,351;,
 4;341,343,352,350;,
 4;343,344,353,352;,
 4;344,345,354,353;,
 4;345,346,355,354;,
 4;346,347,356,355;,
 4;347,348,357,356;,
 4;348,349,358,357;,
 4;351,350,359,360;,
 4;350,352,361,359;,
 4;352,353,362,361;,
 4;353,354,363,362;,
 4;354,355,364,363;,
 4;355,356,365,364;,
 4;356,357,366,365;,
 4;357,358,367,366;,
 3;360,359,368;,
 3;359,361,369;,
 3;361,362,370;,
 3;362,363,371;,
 3;363,364,372;,
 3;364,365,373;,
 3;365,366,374;,
 3;366,367,375;,
 4;376,377,378,379;,
 4;380,381,382,383;,
 4;384,385,386,387;,
 4;388,389,390,391;,
 4;388,381,392,393;,
 4;394,395,382,391;,
 4;396,397,398,399;,
 4;400,401,402,403;,
 4;404,405,406,407;,
 4;408,409,410,411;,
 4;408,401,412,413;,
 4;414,415,402,411;,
 4;416,417,418,419;,
 4;420,421,422,423;,
 4;424,425,426,427;,
 4;428,429,430,431;,
 4;428,421,432,433;,
 4;434,435,422,431;,
 4;436,437,438,439;,
 4;440,441,442,443;,
 4;444,445,446,447;,
 4;448,449,450,451;,
 4;448,441,452,453;,
 4;454,455,442,451;,
 4;456,457,458,459;,
 4;460,461,462,463;,
 4;464,465,466,467;,
 4;468,469,470,471;,
 4;468,461,472,473;,
 4;474,475,462,471;,
 4;476,477,478,479;,
 4;480,481,482,483;,
 4;484,485,486,487;,
 4;488,489,490,491;,
 4;488,481,492,493;,
 4;494,495,482,491;,
 4;496,497,498,499;,
 4;500,501,502,503;,
 4;504,505,506,507;,
 4;508,509,510,511;,
 4;508,501,512,513;,
 4;514,515,502,511;,
 4;516,517,518,519;,
 4;520,521,522,523;,
 4;524,525,526,527;,
 4;528,529,530,531;,
 4;528,521,532,533;,
 4;534,535,522,531;,
 4;536,537,538,539;,
 4;540,541,542,543;,
 4;544,545,546,547;,
 4;548,549,550,551;,
 4;548,541,552,553;,
 4;554,555,542,551;,
 4;556,557,558,559;,
 4;560,561,562,563;,
 4;564,565,566,567;,
 4;568,569,570,571;,
 4;568,561,572,573;,
 4;574,575,562,571;,
 4;576,577,578,579;,
 4;580,581,582,583;,
 4;584,585,586,587;,
 4;588,589,590,591;,
 4;588,581,592,593;,
 4;594,595,582,591;,
 4;596,597,598,599;,
 4;600,601,602,603;,
 4;604,605,606,607;,
 4;608,609,610,611;,
 4;608,601,612,613;,
 4;614,615,602,611;;
 
 MeshMaterialList {
  5;
  358;
  1,
  1,
  1,
  1,
  1,
  1,
  4,
  4,
  4,
  4,
  4,
  4,
  1,
  1,
  1,
  1,
  1,
  1,
  4,
  4,
  4,
  4,
  4,
  4,
  0,
  0,
  0,
  0,
  0,
  0,
  0,
  0,
  0,
  0,
  0,
  0,
  0,
  0,
  0,
  0,
  0,
  0,
  0,
  0,
  0,
  0,
  0,
  0,
  0,
  0,
  0,
  0,
  0,
  0,
  0,
  0,
  0,
  0,
  0,
  0,
  0,
  0,
  0,
  0,
  0,
  0,
  0,
  0,
  0,
  0,
  0,
  0,
  0,
  0,
  0,
  0,
  0,
  0,
  0,
  0,
  0,
  0,
  0,
  0,
  0,
  0,
  0,
  0,
  0,
  0,
  0,
  0,
  0,
  0,
  0,
  0,
  0,
  0,
  0,
  0,
  0,
  0,
  0,
  0,
  0,
  0,
  0,
  0,
  0,
  0,
  0,
  0,
  0,
  0,
  0,
  0,
  0,
  0,
  0,
  0,
  0,
  0,
  0,
  0,
  0,
  0,
  0,
  0,
  0,
  0,
  0,
  0,
  0,
  0,
  0,
  0,
  0,
  0,
  0,
  0,
  0,
  0,
  0,
  0,
  0,
  0,
  0,
  0,
  0,
  0,
  0,
  0,
  0,
  0,
  0,
  0,
  0,
  0,
  0,
  0,
  0,
  0,
  0,
  0,
  0,
  0,
  0,
  0,
  0,
  0,
  0,
  0,
  0,
  0,
  0,
  0,
  0,
  0,
  0,
  0,
  0,
  0,
  0,
  0,
  0,
  0,
  0,
  0,
  0,
  0,
  0,
  0,
  0,
  0,
  0,
  0,
  0,
  0,
  0,
  0,
  0,
  0,
  0,
  0,
  0,
  0,
  0,
  0,
  0,
  0,
  0,
  0,
  0,
  0,
  0,
  0,
  0,
  0,
  0,
  0,
  0,
  0,
  0,
  0,
  0,
  0,
  0,
  0,
  0,
  0,
  0,
  0,
  0,
  0,
  0,
  0,
  0,
  0,
  0,
  0,
  0,
  0,
  0,
  0,
  0,
  0,
  0,
  0,
  0,
  0,
  0,
  0,
  0,
  0,
  0,
  0,
  0,
  0,
  0,
  0,
  0,
  0,
  0,
  0,
  0,
  0,
  0,
  0,
  0,
  0,
  0,
  0,
  0,
  0,
  0,
  0,
  0,
  0,
  0,
  0,
  0,
  0,
  0,
  0,
  0,
  0,
  2,
  2,
  2,
  2,
  2,
  2,
  2,
  2,
  2,
  2,
  2,
  2,
  2,
  2,
  2,
  2,
  2,
  2,
  2,
  2,
  2,
  2,
  2,
  2,
  2,
  2,
  2,
  2,
  2,
  2,
  2,
  2,
  2,
  2,
  2,
  2,
  3,
  3,
  3,
  3,
  3,
  3,
  3,
  3,
  3,
  3,
  3,
  3,
  3,
  3,
  3,
  3,
  3,
  3,
  3,
  3,
  3,
  3,
  3,
  3,
  3,
  3,
  3,
  3,
  3,
  3,
  3,
  3,
  3,
  3,
  3,
  3;;
  Material {
   0.000000;0.000000;0.000000;1.000000;;
   5.000000;
   0.000000;0.000000;0.000000;;
   0.000000;0.000000;0.000000;;
  }
  Material {
   0.800000;0.728000;0.166400;1.000000;;
   5.000000;
   0.000000;0.000000;0.000000;;
   0.000000;0.000000;0.000000;;
  }
  Material {
   0.800000;0.138400;0.112800;1.000000;;
   5.000000;
   0.000000;0.000000;0.000000;;
   0.000000;0.000000;0.000000;;
  }
  Material {
   0.800000;0.800000;0.800000;1.000000;;
   5.000000;
   0.000000;0.000000;0.000000;;
   0.000000;0.000000;0.000000;;
  }
  Material {
   1.000000;1.000000;1.000000;1.000000;;
   0.000000;
   0.000000;0.000000;0.000000;;
   0.000000;0.000000;0.000000;;
  }
 }
 MeshNormals {
  380;
  0.000000;0.000000;-1.000000;,
  1.000000;0.000000;0.000000;,
  0.000000;0.000000;1.000000;,
  -1.000000;0.000000;0.000000;,
  0.000000;1.000000;0.000000;,
  0.000000;-1.000000;-0.000000;,
  0.000000;0.000000;-1.000000;,
  1.000000;0.000000;0.000000;,
  0.000000;0.000000;1.000000;,
  -1.000000;0.000000;0.000000;,
  0.000000;1.000000;0.000000;,
  0.000000;-1.000000;-0.000000;,
  0.000000;0.964247;-0.265006;,
  -0.000000;0.519954;-0.854194;,
  0.182630;0.654229;-0.733914;,
  0.281693;0.915088;-0.288552;,
  0.182631;0.654231;0.733913;,
  -0.000000;0.519955;0.854194;,
  -0.182631;0.654231;0.733913;,
  -0.281694;0.915089;0.288549;,
  -0.182630;0.654229;-0.733915;,
  -0.000000;0.213945;-0.976846;,
  0.245824;0.323986;-0.913566;,
  0.400188;0.421638;-0.813677;,
  0.245825;0.323987;0.913566;,
  -0.000000;0.213945;0.976846;,
  -0.245825;0.323987;0.913566;,
  -0.400190;0.421639;0.813676;,
  -0.245824;0.323986;-0.913566;,
  0.000000;0.087781;-0.996140;,
  0.263143;0.139211;-0.954660;,
  0.433610;0.186068;-0.881681;,
  0.263144;0.139212;0.954660;,
  0.000000;0.087781;0.996140;,
  -0.263144;0.139212;0.954660;,
  -0.433612;0.186068;0.881680;,
  -0.263144;0.139212;-0.954660;,
  0.000000;0.000000;-1.000000;,
  0.267055;0.000000;-0.963681;,
  0.441308;0.000000;-0.897356;,
  0.267056;0.000000;0.963681;,
  0.000000;0.000000;1.000000;,
  -0.267056;-0.000000;0.963681;,
  -0.441310;0.000000;0.897355;,
  -0.267055;-0.000000;-0.963681;,
  0.000000;-0.087780;-0.996140;,
  0.263144;-0.139208;-0.954660;,
  0.433610;-0.186062;-0.881682;,
  0.263145;-0.139208;0.954660;,
  0.000000;-0.087780;0.996140;,
  -0.263145;-0.139208;0.954660;,
  -0.433612;-0.186062;0.881681;,
  -0.263144;-0.139208;-0.954660;,
  -0.000000;-0.213944;-0.976846;,
  0.245825;-0.323983;-0.913567;,
  0.400189;-0.421632;-0.813680;,
  0.245826;-0.323984;0.913567;,
  -0.000000;-0.213944;0.976846;,
  -0.245826;-0.323983;0.913567;,
  -0.400191;-0.421634;0.813678;,
  -0.245825;-0.323983;-0.913567;,
  -0.000000;-0.519953;-0.854195;,
  0.182630;-0.654229;-0.733915;,
  0.281693;-0.915088;-0.288552;,
  0.182631;-0.654230;0.733913;,
  -0.000000;-0.519954;0.854194;,
  -0.182631;-0.654230;0.733913;,
  -0.281694;-0.915089;0.288549;,
  -0.182630;-0.654228;-0.733915;,
  0.000000;-0.964247;-0.265007;,
  -0.000000;0.715485;0.698629;,
  0.368270;0.551139;0.748748;,
  0.400190;0.421639;0.813676;,
  -0.368268;0.551137;-0.748750;,
  -0.400188;0.421638;-0.813677;,
  0.433612;0.186069;0.881680;,
  -0.433610;0.186069;-0.881681;,
  0.441310;0.000000;0.897355;,
  -0.441308;0.000000;-0.897356;,
  0.433612;-0.186063;0.881681;,
  -0.433611;-0.186063;-0.881682;,
  0.400191;-0.421634;0.813678;,
  -0.400189;-0.421632;-0.813680;,
  0.368270;-0.551139;0.748748;,
  -0.368268;-0.551137;-0.748750;,
  -0.000000;-0.715483;0.698630;,
  -0.000006;0.964246;-0.265008;,
  -0.000002;0.519957;-0.854193;,
  0.182621;0.654219;-0.733926;,
  0.281682;0.915086;-0.288569;,
  0.182621;0.654220;0.733925;,
  -0.000002;0.519958;0.854192;,
  -0.182631;0.654226;0.733917;,
  -0.281697;0.915087;0.288554;,
  -0.182631;0.654224;-0.733918;,
  -0.000001;0.213949;-0.976845;,
  0.245815;0.323977;-0.913572;,
  0.400171;0.421616;-0.813697;,
  0.245816;0.323976;0.913572;,
  -0.000001;0.213949;0.976845;,
  -0.245821;0.323981;0.913569;,
  -0.400181;0.421628;0.813686;,
  -0.245820;0.323980;-0.913569;,
  -0.000001;0.087782;-0.996140;,
  0.263143;0.139211;-0.954660;,
  0.433609;0.186066;-0.881682;,
  0.263143;0.139211;0.954660;,
  -0.000001;0.087782;0.996140;,
  -0.263144;0.139211;0.954660;,
  -0.433610;0.186066;0.881681;,
  -0.263143;0.139211;-0.954660;,
  -0.000001;0.000000;-1.000000;,
  0.267060;0.000000;-0.963680;,
  0.441317;0.000000;-0.897351;,
  0.267061;-0.000000;0.963680;,
  -0.000001;0.000000;1.000000;,
  -0.267061;0.000000;0.963680;,
  -0.441319;0.000000;0.897350;,
  -0.267061;-0.000000;-0.963680;,
  -0.000001;-0.087780;-0.996140;,
  0.263143;-0.139206;-0.954661;,
  0.433609;-0.186060;-0.881683;,
  0.263144;-0.139207;0.954661;,
  -0.000001;-0.087780;0.996140;,
  -0.263145;-0.139208;0.954660;,
  -0.433611;-0.186060;0.881682;,
  -0.263144;-0.139207;-0.954660;,
  -0.000001;-0.213947;-0.976845;,
  0.245815;-0.323972;-0.913574;,
  0.400172;-0.421610;-0.813699;,
  0.245816;-0.323972;0.913573;,
  -0.000001;-0.213947;0.976845;,
  -0.245822;-0.323978;0.913570;,
  -0.400182;-0.421622;0.813689;,
  -0.245821;-0.323977;-0.913571;,
  -0.000002;-0.519956;-0.854193;,
  0.182621;-0.654218;-0.733927;,
  0.281683;-0.915086;-0.288569;,
  0.182622;-0.654219;0.733926;,
  -0.000002;-0.519957;0.854192;,
  -0.182632;-0.654226;0.733917;,
  -0.281697;-0.915086;0.288554;,
  -0.182631;-0.654224;-0.733919;,
  -0.000006;-0.964246;-0.265008;,
  -0.000002;0.715484;0.698629;,
  0.368248;0.551108;0.748781;,
  0.400173;0.421615;0.813697;,
  -0.368260;0.551128;-0.748761;,
  -0.400179;0.421626;-0.813688;,
  0.433610;0.186065;0.881681;,
  -0.433608;0.186066;-0.881682;,
  0.441319;0.000000;0.897350;,
  -0.441317;0.000000;-0.897351;,
  0.433611;-0.186060;0.881682;,
  -0.433609;-0.186060;-0.881683;,
  0.400174;-0.421610;0.813699;,
  -0.400180;-0.421621;-0.813690;,
  0.368248;-0.551108;0.748781;,
  -0.368260;-0.551128;-0.748761;,
  -0.000002;-0.715483;0.698630;,
  0.000000;0.964247;-0.265005;,
  -0.000000;0.519979;-0.854179;,
  0.182632;0.654241;-0.733904;,
  0.281693;0.915089;-0.288550;,
  0.182631;0.654231;0.733913;,
  -0.000000;0.519955;0.854194;,
  -0.182631;0.654231;0.733913;,
  -0.281693;0.915089;0.288550;,
  -0.182632;0.654240;-0.733904;,
  -0.000000;0.213965;-0.976841;,
  0.245832;0.323996;-0.913561;,
  0.400190;0.421639;-0.813676;,
  0.245825;0.323987;0.913566;,
  -0.000000;0.213945;0.976846;,
  -0.245825;0.323987;0.913566;,
  -0.400190;0.421639;0.813676;,
  -0.245832;0.323996;-0.913561;,
  0.000000;0.087782;-0.996140;,
  0.263149;0.139218;-0.954658;,
  0.433619;0.186078;-0.881674;,
  0.263144;0.139212;0.954660;,
  0.000000;0.087781;0.996140;,
  -0.263144;0.139212;0.954660;,
  -0.433612;0.186068;0.881680;,
  -0.263149;0.139218;-0.954657;,
  0.000000;0.000000;-1.000000;,
  0.267060;0.000000;-0.963680;,
  0.441327;0.000000;-0.897346;,
  0.267056;0.000000;0.963681;,
  0.000000;0.000000;1.000000;,
  -0.267056;-0.000000;0.963681;,
  -0.441310;0.000000;0.897355;,
  -0.267060;0.000000;-0.963680;,
  0.000000;-0.087778;-0.996140;,
  0.263150;-0.139212;-0.954658;,
  0.433620;-0.186072;-0.881675;,
  0.263144;-0.139208;0.954660;,
  0.000000;-0.087780;0.996140;,
  -0.263144;-0.139208;0.954660;,
  -0.433612;-0.186062;0.881681;,
  -0.263150;-0.139212;-0.954658;,
  -0.000000;-0.213961;-0.976842;,
  0.245832;-0.323991;-0.913562;,
  0.400191;-0.421633;-0.813678;,
  0.245825;-0.323983;0.913567;,
  -0.000000;-0.213944;0.976846;,
  -0.245826;-0.323983;0.913567;,
  -0.400191;-0.421634;0.813678;,
  -0.245832;-0.323991;-0.913563;,
  -0.000000;-0.519978;-0.854180;,
  0.182632;-0.654240;-0.733904;,
  0.281694;-0.915089;-0.288550;,
  0.182631;-0.654230;0.733913;,
  -0.000000;-0.519954;0.854194;,
  -0.182631;-0.654230;0.733913;,
  -0.281694;-0.915089;0.288550;,
  -0.182632;-0.654240;-0.733904;,
  0.000000;-0.964247;-0.265006;,
  -0.000000;0.715485;0.698629;,
  0.368270;0.551139;0.748748;,
  0.400190;0.421639;0.813676;,
  -0.368270;0.551139;-0.748748;,
  -0.400190;0.421638;-0.813676;,
  0.433612;0.186069;0.881680;,
  -0.433619;0.186078;-0.881674;,
  0.441310;0.000000;0.897355;,
  -0.441327;0.000000;-0.897346;,
  0.433612;-0.186063;0.881681;,
  -0.433620;-0.186072;-0.881675;,
  0.400191;-0.421634;0.813678;,
  -0.400191;-0.421633;-0.813679;,
  0.368270;-0.551139;0.748748;,
  -0.368270;-0.551139;-0.748748;,
  -0.000000;-0.715483;0.698630;,
  -0.000000;0.964247;-0.265005;,
  -0.000000;0.519979;-0.854179;,
  0.182632;0.654241;-0.733904;,
  0.281693;0.915089;-0.288550;,
  0.182631;0.654231;0.733913;,
  -0.000000;0.519955;0.854194;,
  -0.182627;0.654231;0.733913;,
  -0.281689;0.915090;0.288551;,
  -0.182629;0.654241;-0.733904;,
  -0.000000;0.213965;-0.976841;,
  0.245834;0.323995;-0.913560;,
  0.400195;0.421636;-0.813675;,
  0.245828;0.323986;0.913565;,
  -0.000000;0.213946;0.976846;,
  -0.245819;0.323984;0.913568;,
  -0.400180;0.421634;0.813684;,
  -0.245826;0.323993;-0.913564;,
  0.000000;0.087783;-0.996140;,
  0.263154;0.139219;-0.954656;,
  0.433628;0.186081;-0.881669;,
  0.263149;0.139214;0.954658;,
  0.000000;0.087782;0.996140;,
  -0.263143;0.139212;0.954660;,
  -0.433610;0.186066;0.881681;,
  -0.263148;0.139217;-0.954658;,
  0.000000;0.000000;-1.000000;,
  0.267065;0.000000;-0.963678;,
  0.441337;0.000000;-0.897341;,
  0.267061;-0.000000;0.963680;,
  0.000000;0.000000;1.000000;,
  -0.267060;0.000000;0.963680;,
  -0.441318;0.000000;0.897351;,
  -0.267065;-0.000000;-0.963679;,
  0.000000;-0.087778;-0.996140;,
  0.263155;-0.139214;-0.954657;,
  0.433629;-0.186075;-0.881670;,
  0.263149;-0.139210;0.954659;,
  0.000000;-0.087780;0.996140;,
  -0.263143;-0.139207;0.954661;,
  -0.433610;-0.186060;0.881682;,
  -0.263149;-0.139211;-0.954659;,
  -0.000000;-0.213961;-0.976842;,
  0.245835;-0.323990;-0.913562;,
  0.400196;-0.421631;-0.813677;,
  0.245828;-0.323983;0.913567;,
  -0.000000;-0.213944;0.976846;,
  -0.245820;-0.323980;0.913570;,
  -0.400181;-0.421628;0.813686;,
  -0.245826;-0.323988;-0.913565;,
  -0.000000;-0.519978;-0.854180;,
  0.182632;-0.654240;-0.733904;,
  0.281694;-0.915089;-0.288550;,
  0.182631;-0.654230;0.733913;,
  -0.000000;-0.519954;0.854194;,
  -0.182628;-0.654231;0.733914;,
  -0.281690;-0.915090;0.288551;,
  -0.182629;-0.654240;-0.733905;,
  -0.000000;-0.964247;-0.265006;,
  -0.000000;0.715485;0.698629;,
  0.368270;0.551139;0.748748;,
  0.400195;0.421637;0.813674;,
  -0.368259;0.551141;-0.748752;,
  -0.400179;0.421633;-0.813684;,
  0.433621;0.186072;0.881675;,
  -0.433618;0.186076;-0.881676;,
  0.441319;0.000000;0.897350;,
  -0.441336;0.000000;-0.897342;,
  0.433621;-0.186066;0.881676;,
  -0.433618;-0.186070;-0.881676;,
  0.400196;-0.421632;0.813676;,
  -0.400180;-0.421627;-0.813687;,
  0.368270;-0.551139;0.748748;,
  -0.368259;-0.551141;-0.748752;,
  -0.000000;-0.715483;0.698630;,
  0.000000;0.000000;-1.000000;,
  1.000000;0.000000;0.000000;,
  0.000000;0.000000;1.000000;,
  -1.000000;0.000000;0.000000;,
  0.000000;1.000000;0.000000;,
  0.000000;-1.000000;-0.000000;,
  0.000000;0.000000;-1.000000;,
  1.000000;0.000000;0.000000;,
  0.000000;0.000000;1.000000;,
  -1.000000;0.000000;0.000000;,
  0.000000;1.000000;0.000000;,
  0.000000;-1.000000;-0.000000;,
  0.000000;0.000000;-1.000000;,
  1.000000;0.000000;0.000000;,
  0.000000;0.000000;1.000000;,
  -1.000000;0.000000;0.000000;,
  0.000000;1.000000;0.000000;,
  0.000000;-1.000000;-0.000000;,
  0.000000;0.000000;-1.000000;,
  1.000000;0.000000;0.000000;,
  0.000000;0.000000;1.000000;,
  -1.000000;0.000000;0.000000;,
  0.000000;1.000000;0.000000;,
  0.000000;-1.000000;-0.000000;,
  0.000000;0.000000;-1.000000;,
  1.000000;0.000000;0.000000;,
  0.000000;0.000000;1.000000;,
  -1.000000;0.000000;0.000000;,
  0.000000;1.000000;0.000000;,
  0.000000;-1.000000;-0.000000;,
  0.000000;0.000000;-1.000000;,
  1.000000;0.000000;0.000000;,
  0.000000;0.000000;1.000000;,
  -1.000000;0.000000;0.000000;,
  0.000000;1.000000;0.000000;,
  0.000000;-1.000000;-0.000000;,
  0.000000;0.000000;-1.000000;,
  1.000000;0.000000;0.000000;,
  0.000000;0.000000;1.000000;,
  -1.000000;0.000000;0.000000;,
  0.000000;1.000000;0.000000;,
  0.000000;-1.000000;-0.000000;,
  0.000000;0.000000;-1.000000;,
  1.000000;0.000000;0.000000;,
  0.000000;0.000000;1.000000;,
  -1.000000;0.000000;0.000000;,
  0.000000;1.000000;0.000000;,
  0.000000;-1.000000;-0.000000;,
  0.000000;0.000000;-1.000000;,
  1.000000;0.000000;0.000000;,
  0.000000;0.000000;1.000000;,
  -1.000000;0.000000;0.000000;,
  0.000000;1.000000;0.000000;,
  0.000000;-1.000000;-0.000000;,
  0.000000;0.000000;-1.000000;,
  1.000000;0.000000;0.000000;,
  0.000000;0.000000;1.000000;,
  -1.000000;0.000000;0.000000;,
  0.000000;1.000000;0.000000;,
  0.000000;-1.000000;-0.000000;,
  0.000000;0.000000;-1.000000;,
  0.707108;-0.707106;-0.000000;,
  0.000000;0.000000;1.000000;,
  -0.707108;0.707106;0.000000;,
  0.707107;0.707107;0.000000;,
  -0.707107;-0.707107;0.000000;,
  0.000000;0.000000;-1.000000;,
  -0.707108;-0.707106;0.000000;,
  0.000000;0.000000;1.000000;,
  0.707108;0.707106;0.000000;,
  0.707107;-0.707107;-0.000000;,
  -0.707107;0.707107;0.000000;;
  358;
  4;0,0,0,0;,
  4;1,1,1,1;,
  4;2,2,2,2;,
  4;3,3,3,3;,
  4;4,4,4,4;,
  4;5,5,5,5;,
  4;2,2,2,2;,
  4;3,3,3,3;,
  4;0,0,0,0;,
  4;1,1,1,1;,
  4;5,5,5,5;,
  4;4,4,4,4;,
  4;6,6,6,6;,
  4;7,7,7,7;,
  4;8,8,8,8;,
  4;9,9,9,9;,
  4;10,10,10,10;,
  4;11,11,11,11;,
  4;8,8,8,8;,
  4;9,9,9,9;,
  4;6,6,6,6;,
  4;7,7,7,7;,
  4;11,11,11,11;,
  4;10,10,10,10;,
  4;6,6,6,6;,
  4;7,7,7,7;,
  4;8,8,8,8;,
  4;9,9,9,9;,
  4;10,10,10,10;,
  4;11,11,11,11;,
  3;12,14,13;,
  3;12,15,14;,
  3;12,16,15;,
  3;70,17,16;,
  3;70,18,17;,
  3;12,19,18;,
  3;12,20,19;,
  3;12,13,20;,
  4;13,14,22,21;,
  4;14,15,23,22;,
  4;71,16,24,72;,
  4;16,17,25,24;,
  4;17,18,26,25;,
  4;18,19,27,26;,
  4;73,20,28,74;,
  4;20,13,21,28;,
  4;21,22,30,29;,
  4;22,23,31,30;,
  4;72,24,32,75;,
  4;24,25,33,32;,
  4;25,26,34,33;,
  4;26,27,35,34;,
  4;74,28,36,76;,
  4;28,21,29,36;,
  4;29,30,38,37;,
  4;30,31,39,38;,
  4;75,32,40,77;,
  4;32,33,41,40;,
  4;33,34,42,41;,
  4;34,35,43,42;,
  4;76,36,44,78;,
  4;36,29,37,44;,
  4;37,38,46,45;,
  4;38,39,47,46;,
  4;77,40,48,79;,
  4;40,41,49,48;,
  4;41,42,50,49;,
  4;42,43,51,50;,
  4;78,44,52,80;,
  4;44,37,45,52;,
  4;45,46,54,53;,
  4;46,47,55,54;,
  4;79,48,56,81;,
  4;48,49,57,56;,
  4;49,50,58,57;,
  4;50,51,59,58;,
  4;80,52,60,82;,
  4;52,45,53,60;,
  4;53,54,62,61;,
  4;54,55,63,62;,
  4;81,56,64,83;,
  4;56,57,65,64;,
  4;57,58,66,65;,
  4;58,59,67,66;,
  4;82,60,68,84;,
  4;60,53,61,68;,
  3;61,62,69;,
  3;62,63,69;,
  3;63,64,69;,
  3;64,65,85;,
  3;65,66,85;,
  3;66,67,69;,
  3;67,68,69;,
  3;68,61,69;,
  3;86,88,87;,
  3;86,89,88;,
  3;86,90,89;,
  3;144,91,90;,
  3;144,92,91;,
  3;86,93,92;,
  3;86,94,93;,
  3;86,87,94;,
  4;87,88,96,95;,
  4;88,89,97,96;,
  4;145,90,98,146;,
  4;90,91,99,98;,
  4;91,92,100,99;,
  4;92,93,101,100;,
  4;147,94,102,148;,
  4;94,87,95,102;,
  4;95,96,104,103;,
  4;96,97,105,104;,
  4;146,98,106,149;,
  4;98,99,107,106;,
  4;99,100,108,107;,
  4;100,101,109,108;,
  4;148,102,110,150;,
  4;102,95,103,110;,
  4;103,104,112,111;,
  4;104,105,113,112;,
  4;149,106,114,151;,
  4;106,107,115,114;,
  4;107,108,116,115;,
  4;108,109,117,116;,
  4;150,110,118,152;,
  4;110,103,111,118;,
  4;111,112,120,119;,
  4;112,113,121,120;,
  4;151,114,122,153;,
  4;114,115,123,122;,
  4;115,116,124,123;,
  4;116,117,125,124;,
  4;152,118,126,154;,
  4;118,111,119,126;,
  4;119,120,128,127;,
  4;120,121,129,128;,
  4;153,122,130,155;,
  4;122,123,131,130;,
  4;123,124,132,131;,
  4;124,125,133,132;,
  4;154,126,134,156;,
  4;126,119,127,134;,
  4;127,128,136,135;,
  4;128,129,137,136;,
  4;155,130,138,157;,
  4;130,131,139,138;,
  4;131,132,140,139;,
  4;132,133,141,140;,
  4;156,134,142,158;,
  4;134,127,135,142;,
  3;135,136,143;,
  3;136,137,143;,
  3;137,138,143;,
  3;138,139,159;,
  3;139,140,159;,
  3;140,141,143;,
  3;141,142,143;,
  3;142,135,143;,
  3;160,162,161;,
  3;160,163,162;,
  3;160,164,163;,
  3;218,165,164;,
  3;218,166,165;,
  3;160,167,166;,
  3;160,168,167;,
  3;160,161,168;,
  4;161,162,170,169;,
  4;162,163,171,170;,
  4;219,164,172,220;,
  4;164,165,173,172;,
  4;165,166,174,173;,
  4;166,167,175,174;,
  4;221,168,176,222;,
  4;168,161,169,176;,
  4;169,170,178,177;,
  4;170,171,179,178;,
  4;220,172,180,223;,
  4;172,173,181,180;,
  4;173,174,182,181;,
  4;174,175,183,182;,
  4;222,176,184,224;,
  4;176,169,177,184;,
  4;177,178,186,185;,
  4;178,179,187,186;,
  4;223,180,188,225;,
  4;180,181,189,188;,
  4;181,182,190,189;,
  4;182,183,191,190;,
  4;224,184,192,226;,
  4;184,177,185,192;,
  4;185,186,194,193;,
  4;186,187,195,194;,
  4;225,188,196,227;,
  4;188,189,197,196;,
  4;189,190,198,197;,
  4;190,191,199,198;,
  4;226,192,200,228;,
  4;192,185,193,200;,
  4;193,194,202,201;,
  4;194,195,203,202;,
  4;227,196,204,229;,
  4;196,197,205,204;,
  4;197,198,206,205;,
  4;198,199,207,206;,
  4;228,200,208,230;,
  4;200,193,201,208;,
  4;201,202,210,209;,
  4;202,203,211,210;,
  4;229,204,212,231;,
  4;204,205,213,212;,
  4;205,206,214,213;,
  4;206,207,215,214;,
  4;230,208,216,232;,
  4;208,201,209,216;,
  3;209,210,217;,
  3;210,211,217;,
  3;211,212,217;,
  3;212,213,233;,
  3;213,214,233;,
  3;214,215,217;,
  3;215,216,217;,
  3;216,209,217;,
  3;234,236,235;,
  3;234,237,236;,
  3;234,238,237;,
  3;292,239,238;,
  3;292,240,239;,
  3;234,241,240;,
  3;234,242,241;,
  3;234,235,242;,
  4;235,236,244,243;,
  4;236,237,245,244;,
  4;293,238,246,294;,
  4;238,239,247,246;,
  4;239,240,248,247;,
  4;240,241,249,248;,
  4;295,242,250,296;,
  4;242,235,243,250;,
  4;243,244,252,251;,
  4;244,245,253,252;,
  4;294,246,254,297;,
  4;246,247,255,254;,
  4;247,248,256,255;,
  4;248,249,257,256;,
  4;296,250,258,298;,
  4;250,243,251,258;,
  4;251,252,260,259;,
  4;252,253,261,260;,
  4;297,254,262,299;,
  4;254,255,263,262;,
  4;255,256,264,263;,
  4;256,257,265,264;,
  4;298,258,266,300;,
  4;258,251,259,266;,
  4;259,260,268,267;,
  4;260,261,269,268;,
  4;299,262,270,301;,
  4;262,263,271,270;,
  4;263,264,272,271;,
  4;264,265,273,272;,
  4;300,266,274,302;,
  4;266,259,267,274;,
  4;267,268,276,275;,
  4;268,269,277,276;,
  4;301,270,278,303;,
  4;270,271,279,278;,
  4;271,272,280,279;,
  4;272,273,281,280;,
  4;302,274,282,304;,
  4;274,267,275,282;,
  4;275,276,284,283;,
  4;276,277,285,284;,
  4;303,278,286,305;,
  4;278,279,287,286;,
  4;279,280,288,287;,
  4;280,281,289,288;,
  4;304,282,290,306;,
  4;282,275,283,290;,
  3;283,284,291;,
  3;284,285,291;,
  3;285,286,291;,
  3;286,287,307;,
  3;287,288,307;,
  3;288,289,291;,
  3;289,290,291;,
  3;290,283,291;,
  4;308,308,308,308;,
  4;309,309,309,309;,
  4;310,310,310,310;,
  4;311,311,311,311;,
  4;312,312,312,312;,
  4;313,313,313,313;,
  4;314,314,314,314;,
  4;315,315,315,315;,
  4;316,316,316,316;,
  4;317,317,317,317;,
  4;318,318,318,318;,
  4;319,319,319,319;,
  4;320,320,320,320;,
  4;321,321,321,321;,
  4;322,322,322,322;,
  4;323,323,323,323;,
  4;324,324,324,324;,
  4;325,325,325,325;,
  4;326,326,326,326;,
  4;327,327,327,327;,
  4;328,328,328,328;,
  4;329,329,329,329;,
  4;330,330,330,330;,
  4;331,331,331,331;,
  4;332,332,332,332;,
  4;333,333,333,333;,
  4;334,334,334,334;,
  4;335,335,335,335;,
  4;336,336,336,336;,
  4;337,337,337,337;,
  4;338,338,338,338;,
  4;339,339,339,339;,
  4;340,340,340,340;,
  4;341,341,341,341;,
  4;342,342,342,342;,
  4;343,343,343,343;,
  4;344,344,344,344;,
  4;345,345,345,345;,
  4;346,346,346,346;,
  4;347,347,347,347;,
  4;348,348,348,348;,
  4;349,349,349,349;,
  4;350,350,350,350;,
  4;351,351,351,351;,
  4;352,352,352,352;,
  4;353,353,353,353;,
  4;354,354,354,354;,
  4;355,355,355,355;,
  4;356,356,356,356;,
  4;357,357,357,357;,
  4;358,358,358,358;,
  4;359,359,359,359;,
  4;360,360,360,360;,
  4;361,361,361,361;,
  4;362,362,362,362;,
  4;363,363,363,363;,
  4;364,364,364,364;,
  4;365,365,365,365;,
  4;366,366,366,366;,
  4;367,367,367,367;,
  4;368,368,368,368;,
  4;369,369,369,369;,
  4;370,370,370,370;,
  4;371,371,371,371;,
  4;372,372,372,372;,
  4;373,373,373,373;,
  4;374,374,374,374;,
  4;375,375,375,375;,
  4;376,376,376,376;,
  4;377,377,377,377;,
  4;378,378,378,378;,
  4;379,379,379,379;;
 }
 MeshTextureCoords {
  616;
  0.000000;0.000000;,
  1.000000;0.000000;,
  1.000000;1.000000;,
  0.000000;1.000000;,
  0.000000;0.000000;,
  1.000000;0.000000;,
  1.000000;1.000000;,
  0.000000;1.000000;,
  0.000000;0.000000;,
  1.000000;0.000000;,
  1.000000;1.000000;,
  0.000000;1.000000;,
  0.000000;0.000000;,
  1.000000;0.000000;,
  1.000000;1.000000;,
  0.000000;1.000000;,
  1.000000;1.000000;,
  0.000000;1.000000;,
  0.000000;0.000000;,
  1.000000;0.000000;,
  0.000000;0.000000;,
  1.000000;0.000000;,
  1.000000;1.000000;,
  0.000000;1.000000;,
  0.000000;0.000000;,
  1.000000;0.000000;,
  1.000000;1.000000;,
  0.000000;1.000000;,
  0.000000;0.000000;,
  1.000000;0.000000;,
  1.000000;1.000000;,
  0.000000;1.000000;,
  0.000000;0.000000;,
  1.000000;0.000000;,
  1.000000;1.000000;,
  0.000000;1.000000;,
  1.000000;1.000000;,
  0.000000;1.000000;,
  0.000000;0.000000;,
  1.000000;0.000000;,
  0.000000;0.000000;,
  1.000000;0.000000;,
  1.000000;1.000000;,
  0.000000;1.000000;,
  0.000000;0.000000;,
  1.000000;0.000000;,
  1.000000;1.000000;,
  0.000000;1.000000;,
  0.000000;0.000000;,
  1.000000;0.000000;,
  1.000000;1.000000;,
  0.000000;1.000000;,
  0.000000;0.000000;,
  1.000000;0.000000;,
  1.000000;1.000000;,
  0.000000;1.000000;,
  1.000000;1.000000;,
  0.000000;1.000000;,
  0.000000;0.000000;,
  1.000000;0.000000;,
  0.062500;0.000000;,
  0.125000;0.125000;,
  0.000000;0.125000;,
  0.187500;0.000000;,
  0.250000;0.125000;,
  0.312500;0.000000;,
  0.375000;0.125000;,
  0.437500;0.000000;,
  0.500000;0.125000;,
  0.562500;0.000000;,
  0.625000;0.125000;,
  0.687500;0.000000;,
  0.750000;0.125000;,
  0.812500;0.000000;,
  0.875000;0.125000;,
  0.937500;0.000000;,
  1.000000;0.125000;,
  0.125000;0.250000;,
  0.000000;0.250000;,
  0.250000;0.250000;,
  0.375000;0.250000;,
  0.500000;0.250000;,
  0.625000;0.250000;,
  0.750000;0.250000;,
  0.875000;0.250000;,
  1.000000;0.250000;,
  0.125000;0.375000;,
  0.000000;0.375000;,
  0.250000;0.375000;,
  0.375000;0.375000;,
  0.500000;0.375000;,
  0.625000;0.375000;,
  0.750000;0.375000;,
  0.875000;0.375000;,
  1.000000;0.375000;,
  0.125000;0.500000;,
  0.000000;0.500000;,
  0.250000;0.500000;,
  0.375000;0.500000;,
  0.500000;0.500000;,
  0.625000;0.500000;,
  0.750000;0.500000;,
  0.875000;0.500000;,
  1.000000;0.500000;,
  0.125000;0.625000;,
  0.000000;0.625000;,
  0.250000;0.625000;,
  0.375000;0.625000;,
  0.500000;0.625000;,
  0.625000;0.625000;,
  0.750000;0.625000;,
  0.875000;0.625000;,
  1.000000;0.625000;,
  0.125000;0.750000;,
  0.000000;0.750000;,
  0.250000;0.750000;,
  0.375000;0.750000;,
  0.500000;0.750000;,
  0.625000;0.750000;,
  0.750000;0.750000;,
  0.875000;0.750000;,
  1.000000;0.750000;,
  0.125000;0.875000;,
  0.000000;0.875000;,
  0.250000;0.875000;,
  0.375000;0.875000;,
  0.500000;0.875000;,
  0.625000;0.875000;,
  0.750000;0.875000;,
  0.875000;0.875000;,
  1.000000;0.875000;,
  0.062500;1.000000;,
  0.187500;1.000000;,
  0.312500;1.000000;,
  0.437500;1.000000;,
  0.562500;1.000000;,
  0.687500;1.000000;,
  0.812500;1.000000;,
  0.937500;1.000000;,
  0.062500;0.000000;,
  0.125000;0.125000;,
  0.000000;0.125000;,
  0.187500;0.000000;,
  0.250000;0.125000;,
  0.312500;0.000000;,
  0.375000;0.125000;,
  0.437500;0.000000;,
  0.500000;0.125000;,
  0.562500;0.000000;,
  0.625000;0.125000;,
  0.687500;0.000000;,
  0.750000;0.125000;,
  0.812500;0.000000;,
  0.875000;0.125000;,
  0.937500;0.000000;,
  1.000000;0.125000;,
  0.125000;0.250000;,
  0.000000;0.250000;,
  0.250000;0.250000;,
  0.375000;0.250000;,
  0.500000;0.250000;,
  0.625000;0.250000;,
  0.750000;0.250000;,
  0.875000;0.250000;,
  1.000000;0.250000;,
  0.125000;0.375000;,
  0.000000;0.375000;,
  0.250000;0.375000;,
  0.375000;0.375000;,
  0.500000;0.375000;,
  0.625000;0.375000;,
  0.750000;0.375000;,
  0.875000;0.375000;,
  1.000000;0.375000;,
  0.125000;0.500000;,
  0.000000;0.500000;,
  0.250000;0.500000;,
  0.375000;0.500000;,
  0.500000;0.500000;,
  0.625000;0.500000;,
  0.750000;0.500000;,
  0.875000;0.500000;,
  1.000000;0.500000;,
  0.125000;0.625000;,
  0.000000;0.625000;,
  0.250000;0.625000;,
  0.375000;0.625000;,
  0.500000;0.625000;,
  0.625000;0.625000;,
  0.750000;0.625000;,
  0.875000;0.625000;,
  1.000000;0.625000;,
  0.125000;0.750000;,
  0.000000;0.750000;,
  0.250000;0.750000;,
  0.375000;0.750000;,
  0.500000;0.750000;,
  0.625000;0.750000;,
  0.750000;0.750000;,
  0.875000;0.750000;,
  1.000000;0.750000;,
  0.125000;0.875000;,
  0.000000;0.875000;,
  0.250000;0.875000;,
  0.375000;0.875000;,
  0.500000;0.875000;,
  0.625000;0.875000;,
  0.750000;0.875000;,
  0.875000;0.875000;,
  1.000000;0.875000;,
  0.062500;1.000000;,
  0.187500;1.000000;,
  0.312500;1.000000;,
  0.437500;1.000000;,
  0.562500;1.000000;,
  0.687500;1.000000;,
  0.812500;1.000000;,
  0.937500;1.000000;,
  0.062500;0.000000;,
  0.125000;0.125000;,
  0.000000;0.125000;,
  0.187500;0.000000;,
  0.250000;0.125000;,
  0.312500;0.000000;,
  0.375000;0.125000;,
  0.437500;0.000000;,
  0.500000;0.125000;,
  0.562500;0.000000;,
  0.625000;0.125000;,
  0.687500;0.000000;,
  0.750000;0.125000;,
  0.812500;0.000000;,
  0.875000;0.125000;,
  0.937500;0.000000;,
  1.000000;0.125000;,
  0.125000;0.250000;,
  0.000000;0.250000;,
  0.250000;0.250000;,
  0.375000;0.250000;,
  0.500000;0.250000;,
  0.625000;0.250000;,
  0.750000;0.250000;,
  0.875000;0.250000;,
  1.000000;0.250000;,
  0.125000;0.375000;,
  0.000000;0.375000;,
  0.250000;0.375000;,
  0.375000;0.375000;,
  0.500000;0.375000;,
  0.625000;0.375000;,
  0.750000;0.375000;,
  0.875000;0.375000;,
  1.000000;0.375000;,
  0.125000;0.500000;,
  0.000000;0.500000;,
  0.250000;0.500000;,
  0.375000;0.500000;,
  0.500000;0.500000;,
  0.625000;0.500000;,
  0.750000;0.500000;,
  0.875000;0.500000;,
  1.000000;0.500000;,
  0.125000;0.625000;,
  0.000000;0.625000;,
  0.250000;0.625000;,
  0.375000;0.625000;,
  0.500000;0.625000;,
  0.625000;0.625000;,
  0.750000;0.625000;,
  0.875000;0.625000;,
  1.000000;0.625000;,
  0.125000;0.750000;,
  0.000000;0.750000;,
  0.250000;0.750000;,
  0.375000;0.750000;,
  0.500000;0.750000;,
  0.625000;0.750000;,
  0.750000;0.750000;,
  0.875000;0.750000;,
  1.000000;0.750000;,
  0.125000;0.875000;,
  0.000000;0.875000;,
  0.250000;0.875000;,
  0.375000;0.875000;,
  0.500000;0.875000;,
  0.625000;0.875000;,
  0.750000;0.875000;,
  0.875000;0.875000;,
  1.000000;0.875000;,
  0.062500;1.000000;,
  0.187500;1.000000;,
  0.312500;1.000000;,
  0.437500;1.000000;,
  0.562500;1.000000;,
  0.687500;1.000000;,
  0.812500;1.000000;,
  0.937500;1.000000;,
  0.062500;0.000000;,
  0.125000;0.125000;,
  0.000000;0.125000;,
  0.187500;0.000000;,
  0.250000;0.125000;,
  0.312500;0.000000;,
  0.375000;0.125000;,
  0.437500;0.000000;,
  0.500000;0.125000;,
  0.562500;0.000000;,
  0.625000;0.125000;,
  0.687500;0.000000;,
  0.750000;0.125000;,
  0.812500;0.000000;,
  0.875000;0.125000;,
  0.937500;0.000000;,
  1.000000;0.125000;,
  0.125000;0.250000;,
  0.000000;0.250000;,
  0.250000;0.250000;,
  0.375000;0.250000;,
  0.500000;0.250000;,
  0.625000;0.250000;,
  0.750000;0.250000;,
  0.875000;0.250000;,
  1.000000;0.250000;,
  0.125000;0.375000;,
  0.000000;0.375000;,
  0.250000;0.375000;,
  0.375000;0.375000;,
  0.500000;0.375000;,
  0.625000;0.375000;,
  0.750000;0.375000;,
  0.875000;0.375000;,
  1.000000;0.375000;,
  0.125000;0.500000;,
  0.000000;0.500000;,
  0.250000;0.500000;,
  0.375000;0.500000;,
  0.500000;0.500000;,
  0.625000;0.500000;,
  0.750000;0.500000;,
  0.875000;0.500000;,
  1.000000;0.500000;,
  0.125000;0.625000;,
  0.000000;0.625000;,
  0.250000;0.625000;,
  0.375000;0.625000;,
  0.500000;0.625000;,
  0.625000;0.625000;,
  0.750000;0.625000;,
  0.875000;0.625000;,
  1.000000;0.625000;,
  0.125000;0.750000;,
  0.000000;0.750000;,
  0.250000;0.750000;,
  0.375000;0.750000;,
  0.500000;0.750000;,
  0.625000;0.750000;,
  0.750000;0.750000;,
  0.875000;0.750000;,
  1.000000;0.750000;,
  0.125000;0.875000;,
  0.000000;0.875000;,
  0.250000;0.875000;,
  0.375000;0.875000;,
  0.500000;0.875000;,
  0.625000;0.875000;,
  0.750000;0.875000;,
  0.875000;0.875000;,
  1.000000;0.875000;,
  0.062500;1.000000;,
  0.187500;1.000000;,
  0.312500;1.000000;,
  0.437500;1.000000;,
  0.562500;1.000000;,
  0.687500;1.000000;,
  0.812500;1.000000;,
  0.937500;1.000000;,
  0.000000;0.000000;,
  1.000000;0.000000;,
  1.000000;1.000000;,
  0.000000;1.000000;,
  0.000000;0.000000;,
  1.000000;0.000000;,
  1.000000;1.000000;,
  0.000000;1.000000;,
  0.000000;0.000000;,
  1.000000;0.000000;,
  1.000000;1.000000;,
  0.000000;1.000000;,
  0.000000;0.000000;,
  1.000000;0.000000;,
  1.000000;1.000000;,
  0.000000;1.000000;,
  1.000000;1.000000;,
  0.000000;1.000000;,
  0.000000;0.000000;,
  1.000000;0.000000;,
  0.000000;0.000000;,
  1.000000;0.000000;,
  1.000000;1.000000;,
  0.000000;1.000000;,
  0.000000;0.000000;,
  1.000000;0.000000;,
  1.000000;1.000000;,
  0.000000;1.000000;,
  0.000000;0.000000;,
  1.000000;0.000000;,
  1.000000;1.000000;,
  0.000000;1.000000;,
  0.000000;0.000000;,
  1.000000;0.000000;,
  1.000000;1.000000;,
  0.000000;1.000000;,
  1.000000;1.000000;,
  0.000000;1.000000;,
  0.000000;0.000000;,
  1.000000;0.000000;,
  0.000000;0.000000;,
  1.000000;0.000000;,
  1.000000;1.000000;,
  0.000000;1.000000;,
  0.000000;0.000000;,
  1.000000;0.000000;,
  1.000000;1.000000;,
  0.000000;1.000000;,
  0.000000;0.000000;,
  1.000000;0.000000;,
  1.000000;1.000000;,
  0.000000;1.000000;,
  0.000000;0.000000;,
  1.000000;0.000000;,
  1.000000;1.000000;,
  0.000000;1.000000;,
  1.000000;1.000000;,
  0.000000;1.000000;,
  0.000000;0.000000;,
  1.000000;0.000000;,
  0.000000;0.000000;,
  1.000000;0.000000;,
  1.000000;1.000000;,
  0.000000;1.000000;,
  0.000000;0.000000;,
  1.000000;0.000000;,
  1.000000;1.000000;,
  0.000000;1.000000;,
  0.000000;0.000000;,
  1.000000;0.000000;,
  1.000000;1.000000;,
  0.000000;1.000000;,
  0.000000;0.000000;,
  1.000000;0.000000;,
  1.000000;1.000000;,
  0.000000;1.000000;,
  1.000000;1.000000;,
  0.000000;1.000000;,
  0.000000;0.000000;,
  1.000000;0.000000;,
  0.000000;0.000000;,
  1.000000;0.000000;,
  1.000000;1.000000;,
  0.000000;1.000000;,
  0.000000;0.000000;,
  1.000000;0.000000;,
  1.000000;1.000000;,
  0.000000;1.000000;,
  0.000000;0.000000;,
  1.000000;0.000000;,
  1.000000;1.000000;,
  0.000000;1.000000;,
  0.000000;0.000000;,
  1.000000;0.000000;,
  1.000000;1.000000;,
  0.000000;1.000000;,
  1.000000;1.000000;,
  0.000000;1.000000;,
  0.000000;0.000000;,
  1.000000;0.000000;,
  0.000000;0.000000;,
  1.000000;0.000000;,
  1.000000;1.000000;,
  0.000000;1.000000;,
  0.000000;0.000000;,
  1.000000;0.000000;,
  1.000000;1.000000;,
  0.000000;1.000000;,
  0.000000;0.000000;,
  1.000000;0.000000;,
  1.000000;1.000000;,
  0.000000;1.000000;,
  0.000000;0.000000;,
  1.000000;0.000000;,
  1.000000;1.000000;,
  0.000000;1.000000;,
  1.000000;1.000000;,
  0.000000;1.000000;,
  0.000000;0.000000;,
  1.000000;0.000000;,
  0.000000;0.000000;,
  1.000000;0.000000;,
  1.000000;1.000000;,
  0.000000;1.000000;,
  0.000000;0.000000;,
  1.000000;0.000000;,
  1.000000;1.000000;,
  0.000000;1.000000;,
  0.000000;0.000000;,
  1.000000;0.000000;,
  1.000000;1.000000;,
  0.000000;1.000000;,
  0.000000;0.000000;,
  1.000000;0.000000;,
  1.000000;1.000000;,
  0.000000;1.000000;,
  1.000000;1.000000;,
  0.000000;1.000000;,
  0.000000;0.000000;,
  1.000000;0.000000;,
  0.000000;0.000000;,
  1.000000;0.000000;,
  1.000000;1.000000;,
  0.000000;1.000000;,
  0.000000;0.000000;,
  1.000000;0.000000;,
  1.000000;1.000000;,
  0.000000;1.000000;,
  0.000000;0.000000;,
  1.000000;0.000000;,
  1.000000;1.000000;,
  0.000000;1.000000;,
  0.000000;0.000000;,
  1.000000;0.000000;,
  1.000000;1.000000;,
  0.000000;1.000000;,
  1.000000;1.000000;,
  0.000000;1.000000;,
  0.000000;0.000000;,
  1.000000;0.000000;,
  0.000000;0.000000;,
  1.000000;0.000000;,
  1.000000;1.000000;,
  0.000000;1.000000;,
  0.000000;0.000000;,
  1.000000;0.000000;,
  1.000000;1.000000;,
  0.000000;1.000000;,
  0.000000;0.000000;,
  1.000000;0.000000;,
  1.000000;1.000000;,
  0.000000;1.000000;,
  0.000000;0.000000;,
  1.000000;0.000000;,
  1.000000;1.000000;,
  0.000000;1.000000;,
  1.000000;1.000000;,
  0.000000;1.000000;,
  0.000000;0.000000;,
  1.000000;0.000000;,
  0.000000;0.000000;,
  1.000000;0.000000;,
  1.000000;1.000000;,
  0.000000;1.000000;,
  0.000000;0.000000;,
  1.000000;0.000000;,
  1.000000;1.000000;,
  0.000000;1.000000;,
  0.000000;0.000000;,
  1.000000;0.000000;,
  1.000000;1.000000;,
  0.000000;1.000000;,
  0.000000;0.000000;,
  1.000000;0.000000;,
  1.000000;1.000000;,
  0.000000;1.000000;,
  1.000000;1.000000;,
  0.000000;1.000000;,
  0.000000;0.000000;,
  1.000000;0.000000;,
  0.000000;0.000000;,
  1.000000;0.000000;,
  1.000000;1.000000;,
  0.000000;1.000000;,
  0.000000;0.000000;,
  1.000000;0.000000;,
  1.000000;1.000000;,
  0.000000;1.000000;,
  0.000000;0.000000;,
  1.000000;0.000000;,
  1.000000;1.000000;,
  0.000000;1.000000;,
  0.000000;0.000000;,
  1.000000;0.000000;,
  1.000000;1.000000;,
  0.000000;1.000000;,
  1.000000;1.000000;,
  0.000000;1.000000;,
  0.000000;0.000000;,
  1.000000;0.000000;,
  0.000000;0.000000;,
  1.000000;0.000000;,
  1.000000;1.000000;,
  0.000000;1.000000;,
  0.000000;0.000000;,
  1.000000;0.000000;,
  1.000000;1.000000;,
  0.000000;1.000000;,
  0.000000;0.000000;,
  1.000000;0.000000;,
  1.000000;1.000000;,
  0.000000;1.000000;,
  0.000000;0.000000;,
  1.000000;0.000000;,
  1.000000;1.000000;,
  0.000000;1.000000;,
  1.000000;1.000000;,
  0.000000;1.000000;,
  0.000000;0.000000;,
  1.000000;0.000000;;
 }
}
