#-----------------------
#エネミーの設定スクリプト
#Author:hamada ryuuga
#-----------------------
SCRIPT #ここ消さない

# ここから敵の速度

# TYPE = 0

TYPESTATE
MOVESPEED = -10000.0
BACK = 0
TRACKING = 0
LIFE = 0
ENDSTATE

# TYPE = 1

TYPESTATE
MOVESPEED = -10000.0
BACK = 0
TRACKING = 0
LIFE = 0
ENDSTATE

# TYPE = 2

TYPESTATE
MOVESPEED = -10000.0
BACK = 0
TRACKING = 0
LIFE = 0
ENDSTATE

# TYPE = 3

TYPESTATE
MOVESPEED = -10000.0
BACK = 0
TRACKING = 0
LIFE = 0
ENDSTATE

# TYPE = 4

TYPESTATE
MOVESPEED = -10000.0
BACK = 0
TRACKING = 0
LIFE = 0
ENDSTATE

# TYPE = 5

TYPESTATE
MOVESPEED = -10000.0
BACK = 0
TRACKING = 0
LIFE = 0
ENDSTATE

# TYPE = 6

TYPESTATE
MOVESPEED = -10000.0
BACK = 0
TRACKING = 0
LIFE = 0
ENDSTATE

# TYPE = 7

TYPESTATE
MOVESPEED = -10000.0
BACK = 0
TRACKING = 0
LIFE = 0
ENDSTATE

# TYPE = 8

TYPESTATE
MOVESPEED = -10000.0
BACK = 0
TRACKING = 0
LIFE = 0
ENDSTATE

# TYPE = 9

TYPESTATE
MOVESPEED = -10000.0
BACK = 0
TRACKING = 0
LIFE = 0
ENDSTATE

# TYPE = 10

TYPESTATE
MOVESPEED = -10000.0
BACK = 0
TRACKING = 0
LIFE = 0
ENDSTATE

# TYPE = 11

TYPESTATE
MOVESPEED = -10000.0
BACK = 0
TRACKING = 0
LIFE = 0
ENDSTATE


# ここから敵の座標などの設定

END_SCRIPT #ここ消さない